newmtl Solid
Ka 1.0 1.0 1.0
Kd 1.0 1.0 1.0
Ks 0.0 0.0 0.0
d 1.0
Ns 0.0
illum 0

newmtl Khonsu_Ch6_lowpoly_final
Ka 1.0 1.0 1.0
Kd 1.0 1.0 1.0
Ks 0.0 0.0 0.0
d 1.0
Ns 0.0
illum 0
map_Kd Khonsu_Ch6_lowpoly_final.jpg
map_Bump Khonsu_Ch6_lowpoly_final_normal.jpg

