%YAML 1.1
%TAG !u! tag:unity3d.com,2011:
--- !u!74 &7400000
AnimationClip:
  m_ObjectHideFlags: 0
  m_CorrespondingSourceObject: {fileID: 0}
  m_PrefabInstance: {fileID: 0}
  m_PrefabAsset: {fileID: 0}
  m_Name: Take 001
  serializedVersion: 6
  m_Legacy: 0
  m_Compressed: 0
  m_UseHighQualityCurve: 1
  m_RotationCurves:
  - curve:
      serializedVersion: 2
      m_Curve:
      - serializedVersion: 3
        time: 0
        value: {x: 0.00000006651566, y: 0.0000000029041378, z: 0.04361941, w: 0.99904823}
        inSlope: {x: -1.4068745e-11, y: 3.2302158e-10, z: 0.0048516686, w: -0.00021100043}
        outSlope: {x: -1.4068745e-11, y: 3.2302158e-10, z: 0.0048516686, w: -0.00021100043}
        tangentMode: 0
        weightedMode: 0
        inWeight: {x: 0.33333334, y: 0.33333334, z: 0.33333334, w: 0.33333334}
        outWeight: {x: 0.33333334, y: 0.33333334, z: 0.33333334, w: 0.33333334}
      - serializedVersion: 3
        time: 1.5333334
        value: {x: 0.00000006426921, y: 0.000000017384927, z: 0.2611172, w: 0.9653071}
        inSlope: {x: -0.0000000035883865, y: 0.000000013266467, z: 0.19925882, w: -0.053897254}
        outSlope: {x: -0.0000000035883865, y: 0.000000013266467, z: 0.19925882, w: -0.053897254}
        tangentMode: 0
        weightedMode: 0
        inWeight: {x: 0.33333334, y: 0.33333334, z: 0.33333334, w: 0.33333334}
        outWeight: {x: 0.33333334, y: 0.33333334, z: 0.33333334, w: 0.33333334}
      - serializedVersion: 3
        time: 2.8000002
        value: {x: 0.00000006034564, y: 0.000000028127747, z: 0.42247158, w: 0.9063762}
        inSlope: {x: -2.709302e-10, y: 5.815354e-10, z: 0.008734622, w: -0.004069809}
        outSlope: {x: -2.709302e-10, y: 5.815354e-10, z: 0.008734622, w: -0.004069809}
        tangentMode: 0
        weightedMode: 0
        inWeight: {x: 0.33333334, y: 0.33333334, z: 0.33333334, w: 0.33333334}
        outWeight: {x: 0.33333334, y: 0.33333334, z: 0.33333334, w: 0.33333334}
      - serializedVersion: 3
        time: 2.9333334
        value: {x: 0.00000006143989, y: 0.000000025649697, z: 0.3852519, w: 0.92281145}
        inSlope: {x: 0.000000019016305, y: -0.000000045956163, z: -0.6902496, w: 0.28562045}
        outSlope: {x: 0.000000019016305, y: -0.000000045956163, z: -0.6902496, w: 0.28562045}
        tangentMode: 0
        weightedMode: 0
        inWeight: {x: 0.33333334, y: 0.33333334, z: 0.33333334, w: 0.33333334}
        outWeight: {x: 0.33333334, y: 0.33333334, z: 0.33333334, w: 0.33333334}
      - serializedVersion: 3
        time: 3.1333334
        value: {x: 0.00000006548094, y: 0.000000012042174, z: 0.18087038, w: 0.983507}
        inSlope: {x: 0.000000013607581, y: -0.00000007356011, z: -1.1048541, w: 0.20438184}
        outSlope: {x: 0.000000013607581, y: -0.00000007356011, z: -1.1048541, w: 0.20438184}
        tangentMode: 0
        weightedMode: 0
        inWeight: {x: 0.33333334, y: 0.33333334, z: 0.33333334, w: 0.33333334}
        outWeight: {x: 0.33333334, y: 0.33333334, z: 0.33333334, w: 0.33333334}
      - serializedVersion: 3
        time: 3.3000002
        value: {x: 0.00000006650029, y: 0.0000000032370506, z: 0.048619676, w: 0.9988174}
        inSlope: {x: 0.0000000010132704, y: -0.00000001903675, z: -0.2859272, w: 0.015219763}
        outSlope: {x: 0.0000000010132704, y: -0.00000001903675, z: -0.2859272, w: 0.015219763}
        tangentMode: 0
        weightedMode: 0
        inWeight: {x: 0.33333334, y: 0.33333334, z: 0.33333334, w: 0.33333334}
        outWeight: {x: 0.33333334, y: 0.33333334, z: 0.33333334, w: 0.33333334}
      - serializedVersion: 3
        time: 3.3333335
        value: {x: 0.00000006651566, y: 0.0000000029041378, z: 0.04361941, w: 0.99904823}
        inSlope: {x: 4.6107163e-10, y: -0.000000009987394, z: -0.15000816, w: 0.00692547}
        outSlope: {x: 4.6107163e-10, y: -0.000000009987394, z: -0.15000816, w: 0.00692547}
        tangentMode: 0
        weightedMode: 0
        inWeight: {x: 0.33333334, y: 0.33333334, z: 0.33333334, w: 0.33333334}
        outWeight: {x: 0.33333334, y: 0.33333334, z: 0.33333334, w: 0.33333334}
      m_PreInfinity: 2
      m_PostInfinity: 2
      m_RotationOrder: 4
    path: outerdecoration
  - curve:
      serializedVersion: 2
      m_Curve:
      - serializedVersion: 3
        time: 0
        value: {x: 0.00000006657903, y: -0, z: -0, w: 1}
        inSlope: {x: -8.5265123e-13, y: 0.0000000018710127, z: 0.028102132, w: -0.0000125169745}
        outSlope: {x: -8.5265123e-13, y: 0.0000000018710127, z: 0.028102132, w: -0.0000125169745}
        tangentMode: 0
        weightedMode: 0
        inWeight: {x: 0.33333334, y: 0.33333334, z: 0.33333334, w: 0.33333334}
        outWeight: {x: 0.33333334, y: 0.33333334, z: 0.33333334, w: 0.33333334}
      - serializedVersion: 3
        time: 0.5
        value: {x: 0.00000006536934, y: 0.000000012633936, z: 0.1897585, w: 0.9818308}
        inSlope: {x: -0.000000009138823, y: 0.000000047118377, z: 0.70770603, w: -0.13726294}
        outSlope: {x: -0.000000009138823, y: 0.000000047118377, z: 0.70770603, w: -0.13726294}
        tangentMode: 0
        weightedMode: 0
        inWeight: {x: 0.33333334, y: 0.33333334, z: 0.33333334, w: 0.33333334}
        outWeight: {x: 0.33333334, y: 0.33333334, z: 0.33333334, w: 0.33333334}
      - serializedVersion: 3
        time: 1.0666667
        value: {x: 0.000000048290683, y: 0.000000045834238, z: 0.68841857, w: 0.7253137}
        inSlope: {x: -0.00000005639169, y: 0.00000005937363, z: 0.8917763, w: -0.8469888}
        outSlope: {x: -0.00000005639169, y: 0.00000005937363, z: 0.8917763, w: -0.8469888}
        tangentMode: 0
        weightedMode: 0
        inWeight: {x: 0.33333334, y: 0.33333334, z: 0.33333334, w: 0.33333334}
        outWeight: {x: 0.33333334, y: 0.33333334, z: 0.33333334, w: 0.33333334}
      - serializedVersion: 3
        time: 1.5000001
        value: {x: 0.000000015489466, y: 0.00000006475217, z: 0.97256106, w: 0.23264782}
        inSlope: {x: -0.00000009056998, y: 0.000000021656362, z: 0.32527295, w: -1.360338}
        outSlope: {x: -0.00000009056998, y: 0.000000021656362, z: 0.32527295, w: -1.360338}
        tangentMode: 0
        weightedMode: 0
        inWeight: {x: 0.33333334, y: 0.33333334, z: 0.33333334, w: 0.33333334}
        outWeight: {x: 0.33333334, y: 0.33333334, z: 0.33333334, w: 0.33333334}
      - serializedVersion: 3
        time: 1.9333334
        value: {x: -0.00000002430678, y: 0.00000006198345, z: 0.93097556, w: -0.36508164}
        inSlope: {x: -0.00000008533631, y: -0.00000003344969, z: -0.5024068, w: -1.2817297}
        outSlope: {x: -0.00000008533631, y: -0.00000003344969, z: -0.5024068, w: -1.2817297}
        tangentMode: 0
        weightedMode: 0
        inWeight: {x: 0.33333334, y: 0.33333334, z: 0.33333334, w: 0.33333334}
        outWeight: {x: 0.33333334, y: 0.33333334, z: 0.33333334, w: 0.33333334}
      - serializedVersion: 3
        time: 2.4
        value: {x: -0.00000005490959, y: 0.000000037652406, z: 0.5655295, w: -0.824728}
        inSlope: {x: -0.00000004293306, y: -0.000000062554875, z: -0.93955815, w: -0.64484394}
        outSlope: {x: -0.00000004293306, y: -0.000000062554875, z: -0.93955815, w: -0.64484394}
        tangentMode: 0
        weightedMode: 0
        inWeight: {x: 0.33333334, y: 0.33333334, z: 0.33333334, w: 0.33333334}
        outWeight: {x: 0.33333334, y: 0.33333334, z: 0.33333334, w: 0.33333334}
      - serializedVersion: 3
        time: 3.2000003
        value: {x: -0.00000006657185, y: 9.776914e-10, z: 0.014684675, w: -0.9998922}
        inSlope: {x: -2.2477932e-10, y: -0.00000001444961, z: -0.21702947, w: -0.003375994}
        outSlope: {x: -2.2477932e-10, y: -0.00000001444961, z: -0.21702947, w: -0.003375994}
        tangentMode: 0
        weightedMode: 0
        inWeight: {x: 0.33333334, y: 0.33333334, z: 0.33333334, w: 0.33333334}
        outWeight: {x: 0.33333334, y: 0.33333334, z: 0.33333334, w: 0.33333334}
      - serializedVersion: 3
        time: 3.3333335
        value: {x: -0.00000006657903, y: 8.1535795e-24, z: 1.2246469e-16, w: -1}
        inSlope: {x: -8.526521e-13, y: -0.0000000018708064, z: -0.028099036, w: -0.000012516987}
        outSlope: {x: -8.526521e-13, y: -0.0000000018708064, z: -0.028099036, w: -0.000012516987}
        tangentMode: 0
        weightedMode: 0
        inWeight: {x: 0.33333334, y: 0.33333334, z: 0.33333334, w: 0.33333334}
        outWeight: {x: 0.33333334, y: 0.33333334, z: 0.33333334, w: 0.33333334}
      m_PreInfinity: 2
      m_PostInfinity: 2
      m_RotationOrder: 4
    path: Object001
  - curve:
      serializedVersion: 2
      m_Curve:
      - serializedVersion: 3
        time: 0
        value: {x: 0.00000006657903, y: -0, z: -0, w: 1}
        inSlope: {x: -8.5265123e-13, y: -0.0000000018710127, z: -0.028102132, w: -0.0000125169745}
        outSlope: {x: -8.5265123e-13, y: -0.0000000018710127, z: -0.028102132, w: -0.0000125169745}
        tangentMode: 0
        weightedMode: 0
        inWeight: {x: 0.33333334, y: 0.33333334, z: 0.33333334, w: 0.33333334}
        outWeight: {x: 0.33333334, y: 0.33333334, z: 0.33333334, w: 0.33333334}
      - serializedVersion: 3
        time: 0.5
        value: {x: 0.00000006536934, y: -0.000000012633936, z: -0.1897585, w: 0.9818308}
        inSlope: {x: -0.000000009138823, y: -0.000000047118377, z: -0.70770603, w: -0.13726294}
        outSlope: {x: -0.000000009138823, y: -0.000000047118377, z: -0.70770603, w: -0.13726294}
        tangentMode: 0
        weightedMode: 0
        inWeight: {x: 0.33333334, y: 0.33333334, z: 0.33333334, w: 0.33333334}
        outWeight: {x: 0.33333334, y: 0.33333334, z: 0.33333334, w: 0.33333334}
      - serializedVersion: 3
        time: 1.0666667
        value: {x: 0.000000048290683, y: -0.000000045834238, z: -0.68841857, w: 0.7253137}
        inSlope: {x: -0.00000005639169, y: -0.00000005937363, z: -0.8917763, w: -0.8469888}
        outSlope: {x: -0.00000005639169, y: -0.00000005937363, z: -0.8917763, w: -0.8469888}
        tangentMode: 0
        weightedMode: 0
        inWeight: {x: 0.33333334, y: 0.33333334, z: 0.33333334, w: 0.33333334}
        outWeight: {x: 0.33333334, y: 0.33333334, z: 0.33333334, w: 0.33333334}
      - serializedVersion: 3
        time: 1.5000001
        value: {x: 0.000000015489466, y: -0.00000006475217, z: -0.97256106, w: 0.23264782}
        inSlope: {x: -0.00000009056998, y: -0.000000021656362, z: -0.32527295, w: -1.360338}
        outSlope: {x: -0.00000009056998, y: -0.000000021656362, z: -0.32527295, w: -1.360338}
        tangentMode: 0
        weightedMode: 0
        inWeight: {x: 0.33333334, y: 0.33333334, z: 0.33333334, w: 0.33333334}
        outWeight: {x: 0.33333334, y: 0.33333334, z: 0.33333334, w: 0.33333334}
      - serializedVersion: 3
        time: 1.9333334
        value: {x: -0.00000002430678, y: -0.00000006198345, z: -0.93097556, w: -0.36508164}
        inSlope: {x: -0.00000008533631, y: 0.00000003344969, z: 0.5024068, w: -1.2817297}
        outSlope: {x: -0.00000008533631, y: 0.00000003344969, z: 0.5024068, w: -1.2817297}
        tangentMode: 0
        weightedMode: 0
        inWeight: {x: 0.33333334, y: 0.33333334, z: 0.33333334, w: 0.33333334}
        outWeight: {x: 0.33333334, y: 0.33333334, z: 0.33333334, w: 0.33333334}
      - serializedVersion: 3
        time: 2.4
        value: {x: -0.00000005490959, y: -0.000000037652406, z: -0.5655295, w: -0.824728}
        inSlope: {x: -0.00000004293306, y: 0.000000062554875, z: 0.93955815, w: -0.64484394}
        outSlope: {x: -0.00000004293306, y: 0.000000062554875, z: 0.93955815, w: -0.64484394}
        tangentMode: 0
        weightedMode: 0
        inWeight: {x: 0.33333334, y: 0.33333334, z: 0.33333334, w: 0.33333334}
        outWeight: {x: 0.33333334, y: 0.33333334, z: 0.33333334, w: 0.33333334}
      - serializedVersion: 3
        time: 3.2000003
        value: {x: -0.00000006657185, y: -9.776914e-10, z: -0.014684675, w: -0.9998922}
        inSlope: {x: -2.2477932e-10, y: 0.00000001444961, z: 0.21702947, w: -0.003375994}
        outSlope: {x: -2.2477932e-10, y: 0.00000001444961, z: 0.21702947, w: -0.003375994}
        tangentMode: 0
        weightedMode: 0
        inWeight: {x: 0.33333334, y: 0.33333334, z: 0.33333334, w: 0.33333334}
        outWeight: {x: 0.33333334, y: 0.33333334, z: 0.33333334, w: 0.33333334}
      - serializedVersion: 3
        time: 3.3333335
        value: {x: -0.00000006657903, y: -8.1535795e-24, z: -1.2246469e-16, w: -1}
        inSlope: {x: -8.526521e-13, y: 0.0000000018708064, z: 0.028099036, w: -0.000012516987}
        outSlope: {x: -8.526521e-13, y: 0.0000000018708064, z: 0.028099036, w: -0.000012516987}
        tangentMode: 0
        weightedMode: 0
        inWeight: {x: 0.33333334, y: 0.33333334, z: 0.33333334, w: 0.33333334}
        outWeight: {x: 0.33333334, y: 0.33333334, z: 0.33333334, w: 0.33333334}
      m_PreInfinity: 2
      m_PostInfinity: 2
      m_RotationOrder: 4
    path: Object002
  - curve:
      serializedVersion: 2
      m_Curve:
      - serializedVersion: 3
        time: 0
        value: {x: 0.0000000643104, y: 0.00000001723192, z: 0.25881907, w: 0.9659258}
        inSlope: {x: -4.8473225e-10, y: 0.000000001807141, z: 0.027142165, w: -0.007284879}
        outSlope: {x: -4.8473225e-10, y: 0.000000001807141, z: 0.027142165, w: -0.007284879}
        tangentMode: 0
        weightedMode: 0
        inWeight: {x: 0.33333334, y: 0.33333334, z: 0.33333334, w: 0.33333334}
        outWeight: {x: 0.33333334, y: 0.33333334, z: 0.33333334, w: 0.33333334}
      - serializedVersion: 3
        time: 0.5
        value: {x: 0.00000005987203, y: 0.000000029122274, z: 0.43740913, w: 0.8992626}
        inSlope: {x: -0.00000002102249, y: 0.00000004314754, z: 0.6480651, w: -0.31575322}
        outSlope: {x: -0.00000002102249, y: 0.00000004314754, z: 0.6480651, w: -0.31575322}
        tangentMode: 0
        weightedMode: 0
        inWeight: {x: 0.33333334, y: 0.33333334, z: 0.33333334, w: 0.33333334}
        outWeight: {x: 0.33333334, y: 0.33333334, z: 0.33333334, w: 0.33333334}
      - serializedVersion: 3
        time: 1.0666667
        value: {x: 0.000000034782442, y: 0.000000056771025, z: 0.8526863, w: 0.5224234}
        inSlope: {x: -0.00000006983721, y: 0.000000042755225, z: 0.6421733, w: -1.0489365}
        outSlope: {x: -0.00000006983721, y: 0.000000042755225, z: 0.6421733, w: -1.0489365}
        tangentMode: 0
        weightedMode: 0
        inWeight: {x: 0.33333334, y: 0.33333334, z: 0.33333334, w: 0.33333334}
        outWeight: {x: 0.33333334, y: 0.33333334, z: 0.33333334, w: 0.33333334}
      - serializedVersion: 3
        time: 1.5000001
        value: {x: -0.0000000017974281, y: 0.00000006655476, z: 0.9996355, w: -0.026996912}
        inSlope: {x: -0.00000009308897, y: -0.0000000025227838, z: -0.037891593, w: -1.3981724}
        outSlope: {x: -0.00000009308897, y: -0.0000000025227838, z: -0.037891593,
          w: -1.3981724}
        tangentMode: 0
        weightedMode: 0
        inWeight: {x: 0.33333334, y: 0.33333334, z: 0.33333334, w: 0.33333334}
        outWeight: {x: 0.33333334, y: 0.33333334, z: 0.33333334, w: 0.33333334}
      - serializedVersion: 3
        time: 1.9333334
        value: {x: -0.00000003952104, y: 0.00000005358035, z: 0.8047632, w: -0.593596}
        inSlope: {x: -0.00000007377069, y: -0.00000005439633, z: -0.8170189, w: -1.108017}
        outSlope: {x: -0.00000007377069, y: -0.00000005439633, z: -0.8170189, w: -1.108017}
        tangentMode: 0
        weightedMode: 0
        inWeight: {x: 0.33333334, y: 0.33333334, z: 0.33333334, w: 0.33333334}
        outWeight: {x: 0.33333334, y: 0.33333334, z: 0.33333334, w: 0.33333334}
      - serializedVersion: 3
        time: 2.4
        value: {x: -0.000000062783755, y: 0.000000022157767, z: 0.33280402, w: -0.942996}
        inSlope: {x: -0.000000025279643, y: -0.000000071535034, z: -1.0744381, w: -0.37969387}
        outSlope: {x: -0.000000025279643, y: -0.000000071535034, z: -1.0744381, w: -0.37969387}
        tangentMode: 0
        weightedMode: 0
        inWeight: {x: 0.33333334, y: 0.33333334, z: 0.33333334, w: 0.33333334}
        outWeight: {x: 0.33333334, y: 0.33333334, z: 0.33333334, w: 0.33333334}
      - serializedVersion: 3
        time: 3.2000003
        value: {x: -0.00000006455651, y: -0.000000016285686, z: -0.24460684, w: -0.9696224}
        inSlope: {x: 0.0000000035227183, y: -0.000000014015413, z: -0.21050784, w: 0.052910887}
        outSlope: {x: 0.0000000035227183, y: -0.000000014015413, z: -0.21050784, w: 0.052910887}
        tangentMode: 0
        weightedMode: 0
        inWeight: {x: 0.33333334, y: 0.33333334, z: 0.33333334, w: 0.33333334}
        outWeight: {x: 0.33333334, y: 0.33333334, z: 0.33333334, w: 0.33333334}
      - serializedVersion: 3
        time: 3.3333335
        value: {x: -0.000000064310406, y: -0.000000017231923, z: -0.25881907, w: -0.9659259}
        inSlope: {x: 4.834537e-10, y: -0.0000000018073028, z: -0.027144875, w: 0.0072598527}
        outSlope: {x: 4.834537e-10, y: -0.0000000018073028, z: -0.027144875, w: 0.0072598527}
        tangentMode: 0
        weightedMode: 0
        inWeight: {x: 0.33333334, y: 0.33333334, z: 0.33333334, w: 0.33333334}
        outWeight: {x: 0.33333334, y: 0.33333334, z: 0.33333334, w: 0.33333334}
      m_PreInfinity: 2
      m_PostInfinity: 2
      m_RotationOrder: 4
    path: Object003
  - curve:
      serializedVersion: 2
      m_Curve:
      - serializedVersion: 3
        time: 0
        value: {x: 0.00000006657903, y: -0, z: -0, w: 1}
        inSlope: {x: -4.2632561e-13, y: 0.000000001257354, z: 0.018885138, w: -0.0000053644176}
        outSlope: {x: -4.2632561e-13, y: 0.000000001257354, z: 0.018885138, w: -0.0000053644176}
        tangentMode: 0
        weightedMode: 0
        inWeight: {x: 0.33333334, y: 0.33333334, z: 0.33333334, w: 0.33333334}
        outWeight: {x: 0.33333334, y: 0.33333334, z: 0.33333334, w: 0.33333334}
      - serializedVersion: 3
        time: 0.8000001
        value: {x: 0.00000006367294, y: 0.000000019455701, z: 0.29221967, w: 0.9563513}
        inSlope: {x: -0.000000012756837, y: 0.000000041708347, z: 0.62644875, w: -0.19160452}
        outSlope: {x: -0.000000012756837, y: 0.000000041708347, z: 0.62644875, w: -0.19160452}
        tangentMode: 0
        weightedMode: 0
        inWeight: {x: 0.33333334, y: 0.33333334, z: 0.33333334, w: 0.33333334}
        outWeight: {x: 0.33333334, y: 0.33333334, z: 0.33333334, w: 0.33333334}
      - serializedVersion: 3
        time: 1.4000001
        value: {x: 0.00000004871017, y: 0.000000045388173, z: 0.68171877, w: 0.73161435}
        inSlope: {x: -0.000000036674805, y: 0.000000039358476, z: 0.5911541, w: -0.5508467}
        outSlope: {x: -0.000000036674805, y: 0.000000039358476, z: 0.5911541, w: -0.5508467}
        tangentMode: 0
        weightedMode: 0
        inWeight: {x: 0.33333334, y: 0.33333334, z: 0.33333334, w: 0.33333334}
        outWeight: {x: 0.33333334, y: 0.33333334, z: 0.33333334, w: 0.33333334}
      - serializedVersion: 3
        time: 2
        value: {x: 0.000000023596966, y: 0.00000006225713, z: 0.9350862, w: 0.35442042}
        inSlope: {x: -0.0000000417826, y: 0.000000015849071, z: 0.23804948, w: -0.62756395}
        outSlope: {x: -0.0000000417826, y: 0.000000015849071, z: 0.23804948, w: -0.62756395}
        tangentMode: 0
        weightedMode: 0
        inWeight: {x: 0.33333334, y: 0.33333334, z: 0.33333334, w: 0.33333334}
        outWeight: {x: 0.33333334, y: 0.33333334, z: 0.33333334, w: 0.33333334}
      - serializedVersion: 3
        time: 2.8000002
        value: {x: 0.0000000029459943, y: 0.00000006651382, z: 0.9990206, w: 0.044248085}
        inSlope: {x: -0.0000000024922489, y: 1.1191059e-10, z: 0.0016808526, w: -0.037433}
        outSlope: {x: -0.0000000024922489, y: 1.1191059e-10, z: 0.0016808526, w: -0.037433}
        tangentMode: 0
        weightedMode: 0
        inWeight: {x: 0.33333334, y: 0.33333334, z: 0.33333334, w: 0.33333334}
        outWeight: {x: 0.33333334, y: 0.33333334, z: 0.33333334, w: 0.33333334}
      - serializedVersion: 3
        time: 2.8666668
        value: {x: 0.0000000041983235, y: 0.00000006644653, z: 0.9980099, w: 0.06305775}
        inSlope: {x: 0.00000007387955, y: -0.000000005978903, z: -0.08980045, w: 1.1096519}
        outSlope: {x: 0.00000007387955, y: -0.000000005978903, z: -0.08980045, w: 1.1096519}
        tangentMode: 0
        weightedMode: 0
        inWeight: {x: 0.33333334, y: 0.33333334, z: 0.33333334, w: 0.33333334}
        outWeight: {x: 0.33333334, y: 0.33333334, z: 0.33333334, w: 0.33333334}
      - serializedVersion: 3
        time: 3.0000002
        value: {x: 0.000000028335156, y: 0.00000006024853, z: 0.9049176, w: 0.42558682}
        inSlope: {x: 0.0000002421886, y: -0.0000001159148, z: -1.741011, w: 3.6376114}
        outSlope: {x: 0.0000002421886, y: -0.0000001159148, z: -1.741011, w: 3.6376114}
        tangentMode: 0
        weightedMode: 0
        inWeight: {x: 0.33333334, y: 0.33333334, z: 0.33333334, w: 0.33333334}
        outWeight: {x: 0.33333334, y: 0.33333334, z: 0.33333334, w: 0.33333334}
      - serializedVersion: 3
        time: 3.0666668
        value: {x: 0.000000044448228, y: 0.000000049569366, z: 0.74451923, w: 0.66760105}
        inSlope: {x: 0.00000022358797, y: -0.00000020103619, z: -3.0195122, w: 3.3582335}
        outSlope: {x: 0.00000022358797, y: -0.00000020103619, z: -3.0195122, w: 3.3582335}
        tangentMode: 0
        weightedMode: 0
        inWeight: {x: 0.33333334, y: 0.33333334, z: 0.33333334, w: 0.33333334}
        outWeight: {x: 0.33333334, y: 0.33333334, z: 0.33333334, w: 0.33333334}
      - serializedVersion: 3
        time: 3.1333334
        value: {x: 0.000000057187656, y: 0.000000034093095, z: 0.5120696, w: 0.858944}
        inSlope: {x: 0.00000014949202, y: -0.00000024845326, z: -3.7317057, w: 2.245332}
        outSlope: {x: 0.00000014949202, y: -0.00000024845326, z: -3.7317057, w: 2.245332}
        tangentMode: 0
        weightedMode: 0
        inWeight: {x: 0.33333334, y: 0.33333334, z: 0.33333334, w: 0.33333334}
        outWeight: {x: 0.33333334, y: 0.33333334, z: 0.33333334, w: 0.33333334}
      - serializedVersion: 3
        time: 3.2333336
        value: {x: 0.000000065740615, y: 0.000000010532738, z: 0.15819904, w: 0.98740727}
        inSlope: {x: 0.00000003287997, y: -0.00000019031242, z: -2.8584437, w: 0.4938488}
        outSlope: {x: 0.00000003287997, y: -0.00000019031242, z: -2.8584437, w: 0.4938488}
        tangentMode: 0
        weightedMode: 0
        inWeight: {x: 0.33333334, y: 0.33333334, z: 0.33333334, w: 0.33333334}
        outWeight: {x: 0.33333334, y: 0.33333334, z: 0.33333334, w: 0.33333334}
      - serializedVersion: 3
        time: 3.3000002
        value: {x: 0.000000066566415, y: 0.0000000012959586, z: 0.019464968, w: 0.9998105}
        inSlope: {x: 0.0000000027505491, y: -0.00000007406966, z: -1.1125073, w: 0.04131232}
        outSlope: {x: 0.0000000027505491, y: -0.00000007406966, z: -1.1125073, w: 0.04131232}
        tangentMode: 0
        weightedMode: 0
        inWeight: {x: 0.33333334, y: 0.33333334, z: 0.33333334, w: 0.33333334}
        outWeight: {x: 0.33333334, y: 0.33333334, z: 0.33333334, w: 0.33333334}
      - serializedVersion: 3
        time: 3.3333335
        value: {x: 0.00000006657903, y: -0, z: -0, w: 1}
        inSlope: {x: 3.7836437e-10, y: -0.000000038878795, z: -0.58394957, w: 0.0056845006}
        outSlope: {x: 3.7836437e-10, y: -0.000000038878795, z: -0.58394957, w: 0.0056845006}
        tangentMode: 0
        weightedMode: 0
        inWeight: {x: 0.33333334, y: 0.33333334, z: 0.33333334, w: 0.33333334}
        outWeight: {x: 0.33333334, y: 0.33333334, z: 0.33333334, w: 0.33333334}
      m_PreInfinity: 2
      m_PostInfinity: 2
      m_RotationOrder: 4
    path: Object004
  - curve:
      serializedVersion: 2
      m_Curve:
      - serializedVersion: 3
        time: 0
        value: {x: 0.00000006657903, y: -0, z: -0, w: 1}
        inSlope: {x: -3.410605e-12, y: -0.0000000037420236, z: -0.056204237, w: -0.000051856037}
        outSlope: {x: -3.410605e-12, y: -0.0000000037420236, z: -0.056204237, w: -0.000051856037}
        tangentMode: 0
        weightedMode: 0
        inWeight: {x: 0.33333334, y: 0.33333334, z: 0.33333334, w: 0.33333334}
        outWeight: {x: 0.33333334, y: 0.33333334, z: 0.33333334, w: 0.33333334}
      - serializedVersion: 3
        time: 0.33333334
        value: {x: 0.00000006555048, y: -0.000000011657669, z: -0.17509522, w: 0.9845515}
        inSlope: {x: -0.000000011963871, y: -0.00000006668864, z: -1.0016465, w: -0.17969371}
        outSlope: {x: -0.000000011963871, y: -0.00000006668864, z: -1.0016465, w: -0.17969371}
        tangentMode: 0
        weightedMode: 0
        inWeight: {x: 0.33333334, y: 0.33333334, z: 0.33333334, w: 0.33333334}
        outWeight: {x: 0.33333334, y: 0.33333334, z: 0.33333334, w: 0.33333334}
      - serializedVersion: 3
        time: 0.8000001
        value: {x: 0.000000040746187, y: -0.00000005265468, z: -0.7908598, w: 0.6119973}
        inSlope: {x: -0.0000001086037, y: -0.0000000838718, z: -1.2597326, w: -1.6312008}
        outSlope: {x: -0.0000001086037, y: -0.0000000838718, z: -1.2597326, w: -1.6312008}
        tangentMode: 0
        weightedMode: 0
        inWeight: {x: 0.33333334, y: 0.33333334, z: 0.33333334, w: 0.33333334}
        outWeight: {x: 0.33333334, y: 0.33333334, z: 0.33333334, w: 0.33333334}
      - serializedVersion: 3
        time: 1.1
        value: {x: -0.000000002031071, y: -0.00000006654804, z: -0.9995346, w: -0.030506171}
        inSlope: {x: -0.00000016617759, y: 0.0000000051783475, z: 0.07777755, w: -2.495945}
        outSlope: {x: -0.00000016617759, y: 0.0000000051783475, z: 0.07777755, w: -2.495945}
        tangentMode: 0
        weightedMode: 0
        inWeight: {x: 0.33333334, y: 0.33333334, z: 0.33333334, w: 0.33333334}
        outWeight: {x: 0.33333334, y: 0.33333334, z: 0.33333334, w: 0.33333334}
      - serializedVersion: 3
        time: 1.3666668
        value: {x: -0.000000044491067, y: -0.000000049530918, z: -0.7439417, w: -0.6682445}
        inSlope: {x: -0.00000013524333, y: 0.00000012156491, z: 1.825874, w: -2.03132}
        outSlope: {x: -0.00000013524333, y: 0.00000012156491, z: 1.825874, w: -2.03132}
        tangentMode: 0
        weightedMode: 0
        inWeight: {x: 0.33333334, y: 0.33333334, z: 0.33333334, w: 0.33333334}
        outWeight: {x: 0.33333334, y: 0.33333334, z: 0.33333334, w: 0.33333334}
      - serializedVersion: 3
        time: 1.6000001
        value: {x: -0.000000065401345, y: -0.000000012467187, z: -0.18725397, w: -0.98231155}
        inSlope: {x: -0.000000035118212, y: 0.00000018430089, z: 2.7681522, w: -0.5274665}
        outSlope: {x: -0.000000035118212, y: 0.00000018430089, z: 2.7681522, w: -0.5274665}
        tangentMode: 0
        weightedMode: 0
        inWeight: {x: 0.33333334, y: 0.33333334, z: 0.33333334, w: 0.33333334}
        outWeight: {x: 0.33333334, y: 0.33333334, z: 0.33333334, w: 0.33333334}
      - serializedVersion: 3
        time: 1.8333334
        value: {x: -0.000000059371832, y: 0.000000030128934, z: 0.4525289, w: -0.89174974}
        inSlope: {x: 0.00000008415841, y: 0.00000016591915, z: 2.4920635, w: 1.2640371}
        outSlope: {x: 0.00000008415841, y: 0.00000016591915, z: 2.4920635, w: 1.2640371}
        tangentMode: 0
        weightedMode: 0
        inWeight: {x: 0.33333334, y: 0.33333334, z: 0.33333334, w: 0.33333334}
        outWeight: {x: 0.33333334, y: 0.33333334, z: 0.33333334, w: 0.33333334}
      - serializedVersion: 3
        time: 2.0666668
        value: {x: -0.000000029658263, y: 0.00000005960834, z: 0.89530206, w: -0.44545954}
        inSlope: {x: 0.0000001585461, y: 0.00000007897445, z: 1.1861768, w: 2.3813224}
        outSlope: {x: 0.0000001585461, y: 0.00000007897445, z: 1.1861768, w: 2.3813224}
        tangentMode: 0
        weightedMode: 0
        inWeight: {x: 0.33333334, y: 0.33333334, z: 0.33333334, w: 0.33333334}
        outWeight: {x: 0.33333334, y: 0.33333334, z: 0.33333334, w: 0.33333334}
      - serializedVersion: 3
        time: 2.3333335
        value: {x: 0.000000014102255, y: 0.000000065068384, z: 0.9773104, w: 0.21181227}
        inSlope: {x: 0.0000001543745, y: -0.000000033335713, z: -0.5006947, w: 2.3186655}
        outSlope: {x: 0.0000001543745, y: -0.000000033335713, z: -0.5006947, w: 2.3186655}
        tangentMode: 0
        weightedMode: 0
        inWeight: {x: 0.33333334, y: 0.33333334, z: 0.33333334, w: 0.33333334}
        outWeight: {x: 0.33333334, y: 0.33333334, z: 0.33333334, w: 0.33333334}
      - serializedVersion: 3
        time: 2.6333334
        value: {x: 0.000000050270366, y: 0.00000004365383, z: 0.6556694, w: 0.7550481}
        inSlope: {x: 0.0000000819485, y: -0.00000009416131, z: -1.4142792, w: 1.2308463}
        outSlope: {x: 0.0000000819485, y: -0.00000009416131, z: -1.4142792, w: 1.2308463}
        tangentMode: 0
        weightedMode: 0
        inWeight: {x: 0.33333334, y: 0.33333334, z: 0.33333334, w: 0.33333334}
        outWeight: {x: 0.33333334, y: 0.33333334, z: 0.33333334, w: 0.33333334}
      - serializedVersion: 3
        time: 3.1333334
        value: {x: 0.00000006643767, y: 0.0000000043362527, z: 0.06512941, w: 0.9978768}
        inSlope: {x: 0.000000002835601, y: -0.000000042364587, z: -0.6363052, w: 0.042590834}
        outSlope: {x: 0.000000002835601, y: -0.000000042364587, z: -0.6363052, w: 0.042590834}
        tangentMode: 0
        weightedMode: 0
        inWeight: {x: 0.33333334, y: 0.33333334, z: 0.33333334, w: 0.33333334}
        outWeight: {x: 0.33333334, y: 0.33333334, z: 0.33333334, w: 0.33333334}
      - serializedVersion: 3
        time: 3.3333335
        value: {x: 0.00000006657903, y: 1.6307159e-23, z: 2.4492937e-16, w: 1}
        inSlope: {x: 3.4106084e-12, y: -0.0000000037416115, z: -0.056198046, w: 0.000051856092}
        outSlope: {x: 3.4106084e-12, y: -0.0000000037416115, z: -0.056198046, w: 0.000051856092}
        tangentMode: 0
        weightedMode: 0
        inWeight: {x: 0.33333334, y: 0.33333334, z: 0.33333334, w: 0.33333334}
        outWeight: {x: 0.33333334, y: 0.33333334, z: 0.33333334, w: 0.33333334}
      m_PreInfinity: 2
      m_PostInfinity: 2
      m_RotationOrder: 4
    path: Object005
  - curve:
      serializedVersion: 2
      m_Curve:
      - serializedVersion: 3
        time: 0
        value: {x: 0.00000006657903, y: -8.153579e-24, z: -1.2246467e-16, w: 1}
        inSlope: {x: -8.5265123e-13, y: 0.0000000018708044, z: 0.028099008, w: -0.0000125169745}
        outSlope: {x: -8.5265123e-13, y: 0.0000000018708044, z: 0.028099008, w: -0.0000125169745}
        tangentMode: 0
        weightedMode: 0
        inWeight: {x: 0.33333334, y: 0.33333334, z: 0.33333334, w: 0.33333334}
        outWeight: {x: 0.33333334, y: 0.33333334, z: 0.33333334, w: 0.33333334}
      - serializedVersion: 3
        time: 0.5
        value: {x: 0.00000006536934, y: 0.000000012633936, z: 0.1897585, w: 0.9818308}
        inSlope: {x: -0.0000000091387165, y: 0.000000047118057, z: 0.7077011, w: -0.13726205}
        outSlope: {x: -0.0000000091387165, y: 0.000000047118057, z: 0.7077011, w: -0.13726205}
        tangentMode: 0
        weightedMode: 0
        inWeight: {x: 0.33333334, y: 0.33333334, z: 0.33333334, w: 0.33333334}
        outWeight: {x: 0.33333334, y: 0.33333334, z: 0.33333334, w: 0.33333334}
      - serializedVersion: 3
        time: 1.0666667
        value: {x: 0.000000048290673, y: 0.000000045834252, z: 0.68841875, w: 0.72531354}
        inSlope: {x: -0.00000005639196, y: 0.000000059373896, z: 0.8917808, w: -0.8469924}
        outSlope: {x: -0.00000005639196, y: 0.000000059373896, z: 0.8917808, w: -0.8469924}
        tangentMode: 0
        weightedMode: 0
        inWeight: {x: 0.33333334, y: 0.33333334, z: 0.33333334, w: 0.33333334}
        outWeight: {x: 0.33333334, y: 0.33333334, z: 0.33333334, w: 0.33333334}
      - serializedVersion: 3
        time: 1.5000001
        value: {x: 0.000000015489459, y: 0.00000006475218, z: 0.9725611, w: 0.23264772}
        inSlope: {x: -0.00000009057052, y: 0.000000021656469, z: 0.32527474, w: -1.3603463}
        outSlope: {x: -0.00000009057052, y: 0.000000021656469, z: 0.32527474, w: -1.3603463}
        tangentMode: 0
        weightedMode: 0
        inWeight: {x: 0.33333334, y: 0.33333334, z: 0.33333334, w: 0.33333334}
        outWeight: {x: 0.33333334, y: 0.33333334, z: 0.33333334, w: 0.33333334}
      - serializedVersion: 3
        time: 1.9333334
        value: {x: -0.00000002430677, y: 0.00000006198345, z: 0.93097556, w: -0.3650815}
        inSlope: {x: -0.00000008533567, y: -0.00000003344969, z: -0.5024032, w: -1.2817198}
        outSlope: {x: -0.00000008533567, y: -0.00000003344969, z: -0.5024032, w: -1.2817198}
        tangentMode: 0
        weightedMode: 0
        inWeight: {x: 0.33333334, y: 0.33333334, z: 0.33333334, w: 0.33333334}
        outWeight: {x: 0.33333334, y: 0.33333334, z: 0.33333334, w: 0.33333334}
      - serializedVersion: 3
        time: 2.4
        value: {x: -0.000000054909602, y: 0.00000003765239, z: 0.56552935, w: -0.8247282}
        inSlope: {x: -0.000000042933216, y: -0.00000006255509, z: -0.9395617, w: -0.6448457}
        outSlope: {x: -0.000000042933216, y: -0.00000006255509, z: -0.9395617, w: -0.6448457}
        tangentMode: 0
        weightedMode: 0
        inWeight: {x: 0.33333334, y: 0.33333334, z: 0.33333334, w: 0.33333334}
        outWeight: {x: 0.33333334, y: 0.33333334, z: 0.33333334, w: 0.33333334}
      - serializedVersion: 3
        time: 3.2000003
        value: {x: -0.00000006657185, y: 9.776914e-10, z: 0.014684675, w: -0.9998922}
        inSlope: {x: -2.2477932e-10, y: -0.000000014450143, z: -0.21703745, w: -0.003375994}
        outSlope: {x: -2.2477932e-10, y: -0.000000014450143, z: -0.21703745, w: -0.003375994}
        tangentMode: 0
        weightedMode: 0
        inWeight: {x: 0.33333334, y: 0.33333334, z: 0.33333334, w: 0.33333334}
        outWeight: {x: 0.33333334, y: 0.33333334, z: 0.33333334, w: 0.33333334}
      - serializedVersion: 3
        time: 3.3333335
        value: {x: -0.00000006657903, y: 8.1535795e-24, z: 1.2246469e-16, w: -1}
        inSlope: {x: -8.526521e-13, y: -0.0000000018713384, z: -0.028107025, w: -0.000012516987}
        outSlope: {x: -8.526521e-13, y: -0.0000000018713384, z: -0.028107025, w: -0.000012516987}
        tangentMode: 0
        weightedMode: 0
        inWeight: {x: 0.33333334, y: 0.33333334, z: 0.33333334, w: 0.33333334}
        outWeight: {x: 0.33333334, y: 0.33333334, z: 0.33333334, w: 0.33333334}
      m_PreInfinity: 2
      m_PostInfinity: 2
      m_RotationOrder: 4
    path: Object006
  - curve:
      serializedVersion: 2
      m_Curve:
      - serializedVersion: 3
        time: 0
        value: {x: 0.00000006657903, y: -0, z: -0, w: 1}
        inSlope: {x: -2.1316281e-13, y: -9.261561e-10, z: -0.013910628, w: -0.0000035762785}
        outSlope: {x: -2.1316281e-13, y: -9.261561e-10, z: -0.013910628, w: -0.0000035762785}
        tangentMode: 0
        weightedMode: 0
        inWeight: {x: 0.33333334, y: 0.33333334, z: 0.33333334, w: 0.33333334}
        outWeight: {x: 0.33333334, y: 0.33333334, z: 0.33333334, w: 0.33333334}
      - serializedVersion: 3
        time: 1.1666667
        value: {x: 0.00000006107429, y: -0.000000026508461, z: -0.39815032, w: 0.9173202}
        inSlope: {x: -0.000000014904145, y: -0.000000034331954, z: -0.5156574, w: -0.22385558}
        outSlope: {x: -0.000000014904145, y: -0.000000034331954, z: -0.5156574, w: -0.22385558}
        tangentMode: 0
        weightedMode: 0
        inWeight: {x: 0.33333334, y: 0.33333334, z: 0.33333334, w: 0.33333334}
        outWeight: {x: 0.33333334, y: 0.33333334, z: 0.33333334, w: 0.33333334}
      - serializedVersion: 3
        time: 1.8666668
        value: {x: 0.00000004647733, y: -0.000000047672057, z: -0.71602213, w: 0.6980776}
        inSlope: {x: -0.000000023717542, y: -0.000000023131129, z: -0.34742445, w: -0.35623193}
        outSlope: {x: -0.000000023717542, y: -0.000000023131129, z: -0.34742445, w: -0.35623193}
        tangentMode: 0
        weightedMode: 0
        inWeight: {x: 0.33333334, y: 0.33333334, z: 0.33333334, w: 0.33333334}
        outWeight: {x: 0.33333334, y: 0.33333334, z: 0.33333334, w: 0.33333334}
      - serializedVersion: 3
        time: 2.7
        value: {x: 0.000000033316244, y: -0.00000005764369, z: -0.86579347, w: 0.5004015}
        inSlope: {x: -0.00000000159014, y: -9.2000996e-10, z: -0.01381873, w: -0.023883263}
        outSlope: {x: -0.00000000159014, y: -9.2000996e-10, z: -0.01381873, w: -0.023883263}
        tangentMode: 0
        weightedMode: 0
        inWeight: {x: 0.33333334, y: 0.33333334, z: 0.33333334, w: 0.33333334}
        outWeight: {x: 0.33333334, y: 0.33333334, z: 0.33333334, w: 0.33333334}
      - serializedVersion: 3
        time: 2.8000002
        value: {x: 0.000000035339077, y: -0.000000056426202, z: -0.8475072, w: 0.53078395}
        inSlope: {x: 0.00000005748298, y: 0.000000036607446, z: 0.5498337, w: 0.8633789}
        outSlope: {x: 0.00000005748298, y: 0.000000036607446, z: 0.5498337, w: 0.8633789}
        tangentMode: 0
        weightedMode: 0
        inWeight: {x: 0.33333334, y: 0.33333334, z: 0.33333334, w: 0.33333334}
        outWeight: {x: 0.33333334, y: 0.33333334, z: 0.33333334, w: 0.33333334}
      - serializedVersion: 3
        time: 2.966667
        value: {x: 0.000000051126268, y: -0.00000004264823, z: -0.6405655, w: 0.7679035}
        inSlope: {x: 0.000000105275234, y: 0.00000012675665, z: 1.9038525, w: 1.5812062}
        outSlope: {x: 0.000000105275234, y: 0.00000012675665, z: 1.9038525, w: 1.5812062}
        tangentMode: 0
        weightedMode: 0
        inWeight: {x: 0.33333334, y: 0.33333334, z: 0.33333334, w: 0.33333334}
        outWeight: {x: 0.33333334, y: 0.33333334, z: 0.33333334, w: 0.33333334}
      - serializedVersion: 3
        time: 3.1000001
        value: {x: 0.000000062497605, y: -0.000000022952475, z: -0.34474033, w: 0.9386981}
        inSlope: {x: 0.000000057136752, y: 0.00000015454941, z: 2.3212929, w: 0.858179}
        outSlope: {x: 0.000000057136752, y: 0.00000015454941, z: 2.3212929, w: 0.858179}
        tangentMode: 0
        weightedMode: 0
        inWeight: {x: 0.33333334, y: 0.33333334, z: 0.33333334, w: 0.33333334}
        outWeight: {x: 0.33333334, y: 0.33333334, z: 0.33333334, w: 0.33333334}
      - serializedVersion: 3
        time: 3.3000002
        value: {x: 0.00000006657612, y: -6.21951e-10, z: -0.009341545, w: 0.99995637}
        inSlope: {x: 6.443918e-10, y: 0.00000003587131, z: 0.5387778, w: 0.009679208}
        outSlope: {x: 6.443918e-10, y: 0.00000003587131, z: 0.5387778, w: 0.009679208}
        tangentMode: 0
        weightedMode: 0
        inWeight: {x: 0.33333334, y: 0.33333334, z: 0.33333334, w: 0.33333334}
        outWeight: {x: 0.33333334, y: 0.33333334, z: 0.33333334, w: 0.33333334}
      - serializedVersion: 3
        time: 3.3333335
        value: {x: 0.00000006657903, y: 0, z: -0, w: 1}
        inSlope: {x: 8.718368e-11, y: 0.000000018658547, z: 0.28024662, w: 0.0013089193}
        outSlope: {x: 8.718368e-11, y: 0.000000018658547, z: 0.28024662, w: 0.0013089193}
        tangentMode: 0
        weightedMode: 0
        inWeight: {x: 0.33333334, y: 0.33333334, z: 0.33333334, w: 0.33333334}
        outWeight: {x: 0.33333334, y: 0.33333334, z: 0.33333334, w: 0.33333334}
      m_PreInfinity: 2
      m_PostInfinity: 2
      m_RotationOrder: 4
    path: Object007
  - curve:
      serializedVersion: 2
      m_Curve:
      - serializedVersion: 3
        time: 0
        value: {x: 0.00000006657903, y: -0, z: -0, w: 1}
        inSlope: {x: -8.5265123e-13, y: -0.0000000018710127, z: -0.028102132, w: -0.0000125169745}
        outSlope: {x: -8.5265123e-13, y: -0.0000000018710127, z: -0.028102132, w: -0.0000125169745}
        tangentMode: 0
        weightedMode: 0
        inWeight: {x: 0.33333334, y: 0.33333334, z: 0.33333334, w: 0.33333334}
        outWeight: {x: 0.33333334, y: 0.33333334, z: 0.33333334, w: 0.33333334}
      - serializedVersion: 3
        time: 0.5
        value: {x: 0.00000006536934, y: -0.000000012633936, z: -0.1897585, w: 0.9818308}
        inSlope: {x: -0.000000009138823, y: -0.000000047118377, z: -0.70770603, w: -0.13726294}
        outSlope: {x: -0.000000009138823, y: -0.000000047118377, z: -0.70770603, w: -0.13726294}
        tangentMode: 0
        weightedMode: 0
        inWeight: {x: 0.33333334, y: 0.33333334, z: 0.33333334, w: 0.33333334}
        outWeight: {x: 0.33333334, y: 0.33333334, z: 0.33333334, w: 0.33333334}
      - serializedVersion: 3
        time: 1.0666667
        value: {x: 0.000000048290683, y: -0.000000045834238, z: -0.68841857, w: 0.7253137}
        inSlope: {x: -0.00000005639169, y: -0.00000005937363, z: -0.8917763, w: -0.8469888}
        outSlope: {x: -0.00000005639169, y: -0.00000005937363, z: -0.8917763, w: -0.8469888}
        tangentMode: 0
        weightedMode: 0
        inWeight: {x: 0.33333334, y: 0.33333334, z: 0.33333334, w: 0.33333334}
        outWeight: {x: 0.33333334, y: 0.33333334, z: 0.33333334, w: 0.33333334}
      - serializedVersion: 3
        time: 1.5000001
        value: {x: 0.000000015489466, y: -0.00000006475217, z: -0.97256106, w: 0.23264782}
        inSlope: {x: -0.00000009056998, y: -0.000000021656362, z: -0.32527295, w: -1.360338}
        outSlope: {x: -0.00000009056998, y: -0.000000021656362, z: -0.32527295, w: -1.360338}
        tangentMode: 0
        weightedMode: 0
        inWeight: {x: 0.33333334, y: 0.33333334, z: 0.33333334, w: 0.33333334}
        outWeight: {x: 0.33333334, y: 0.33333334, z: 0.33333334, w: 0.33333334}
      - serializedVersion: 3
        time: 1.9333334
        value: {x: -0.00000002430678, y: -0.00000006198345, z: -0.93097556, w: -0.36508164}
        inSlope: {x: -0.00000008533631, y: 0.00000003344969, z: 0.5024068, w: -1.2817297}
        outSlope: {x: -0.00000008533631, y: 0.00000003344969, z: 0.5024068, w: -1.2817297}
        tangentMode: 0
        weightedMode: 0
        inWeight: {x: 0.33333334, y: 0.33333334, z: 0.33333334, w: 0.33333334}
        outWeight: {x: 0.33333334, y: 0.33333334, z: 0.33333334, w: 0.33333334}
      - serializedVersion: 3
        time: 2.4
        value: {x: -0.00000005490959, y: -0.000000037652406, z: -0.5655295, w: -0.824728}
        inSlope: {x: -0.00000004293306, y: 0.000000062554875, z: 0.93955815, w: -0.64484394}
        outSlope: {x: -0.00000004293306, y: 0.000000062554875, z: 0.93955815, w: -0.64484394}
        tangentMode: 0
        weightedMode: 0
        inWeight: {x: 0.33333334, y: 0.33333334, z: 0.33333334, w: 0.33333334}
        outWeight: {x: 0.33333334, y: 0.33333334, z: 0.33333334, w: 0.33333334}
      - serializedVersion: 3
        time: 3.2000003
        value: {x: -0.00000006657185, y: -9.776914e-10, z: -0.014684675, w: -0.9998922}
        inSlope: {x: -2.2477932e-10, y: 0.00000001444961, z: 0.21702947, w: -0.003375994}
        outSlope: {x: -2.2477932e-10, y: 0.00000001444961, z: 0.21702947, w: -0.003375994}
        tangentMode: 0
        weightedMode: 0
        inWeight: {x: 0.33333334, y: 0.33333334, z: 0.33333334, w: 0.33333334}
        outWeight: {x: 0.33333334, y: 0.33333334, z: 0.33333334, w: 0.33333334}
      - serializedVersion: 3
        time: 3.3333335
        value: {x: -0.00000006657903, y: -8.1535795e-24, z: -1.2246469e-16, w: -1}
        inSlope: {x: -8.526521e-13, y: 0.0000000018708064, z: 0.028099036, w: -0.000012516987}
        outSlope: {x: -8.526521e-13, y: 0.0000000018708064, z: 0.028099036, w: -0.000012516987}
        tangentMode: 0
        weightedMode: 0
        inWeight: {x: 0.33333334, y: 0.33333334, z: 0.33333334, w: 0.33333334}
        outWeight: {x: 0.33333334, y: 0.33333334, z: 0.33333334, w: 0.33333334}
      m_PreInfinity: 2
      m_PostInfinity: 2
      m_RotationOrder: 4
    path: Object008
  - curve:
      serializedVersion: 2
      m_Curve:
      - serializedVersion: 3
        time: 0
        value: {x: 0.00000006657903, y: -0, z: -0, w: 1}
        inSlope: {x: -7.887024e-12, y: 0.0000000056130314, z: 0.0843063, w: -0.00011801719}
        outSlope: {x: -7.887024e-12, y: 0.0000000056130314, z: 0.0843063, w: -0.00011801719}
        tangentMode: 0
        weightedMode: 0
        inWeight: {x: 0.33333334, y: 0.33333334, z: 0.33333334, w: 0.33333334}
        outWeight: {x: 0.33333334, y: 0.33333334, z: 0.33333334, w: 0.33333334}
      - serializedVersion: 3
        time: 0.26666668
        value: {x: 0.00000006560366, y: 0.000000011354663, z: 0.17054413, w: 0.9853501}
        inSlope: {x: -0.000000014366643, y: 0.00000008184881, z: 1.2293483, w: -0.21578375}
        outSlope: {x: -0.000000014366643, y: 0.00000008184881, z: 1.2293483, w: -0.21578375}
        tangentMode: 0
        weightedMode: 0
        inWeight: {x: 0.33333334, y: 0.33333334, z: 0.33333334, w: 0.33333334}
        outWeight: {x: 0.33333334, y: 0.33333334, z: 0.33333334, w: 0.33333334}
      - serializedVersion: 3
        time: 0.6333334
        value: {x: 0.00000004181949, y: 0.000000051806342, z: 0.778118, w: 0.6281181}
        inSlope: {x: -0.00000013526824, y: 0.0000001088014, z: 1.634169, w: -2.031694}
        outSlope: {x: -0.00000013526824, y: 0.0000001088014, z: 1.634169, w: -2.031694}
        tangentMode: 0
        weightedMode: 0
        inWeight: {x: 0.33333334, y: 0.33333334, z: 0.33333334, w: 0.33333334}
        outWeight: {x: 0.33333334, y: 0.33333334, z: 0.33333334, w: 0.33333334}
      - serializedVersion: 3
        time: 0.86666673
        value: {x: -6.3587074e-10, y: 0.00000006657599, z: 0.9999544, w: -0.009550616}
        inSlope: {x: -0.00000021683935, y: -0.0000000023651587, z: -0.035524234, w: -3.256872}
        outSlope: {x: -0.00000021683935, y: -0.0000000023651587, z: -0.035524234,
          w: -3.256872}
        tangentMode: 0
        weightedMode: 0
        inWeight: {x: 0.33333334, y: 0.33333334, z: 0.33333334, w: 0.33333334}
        outWeight: {x: 0.33333334, y: 0.33333334, z: 0.33333334, w: 0.33333334}
      - serializedVersion: 3
        time: 1.0666667
        value: {x: -0.000000043253007, y: 0.000000050615654, z: 0.7602342, w: -0.64964914}
        inSlope: {x: -0.00000018617627, y: -0.00000015942265, z: -2.3944871, w: -2.79632}
        outSlope: {x: -0.00000018617627, y: -0.00000015942265, z: -2.3944871, w: -2.79632}
        tangentMode: 0
        weightedMode: 0
        inWeight: {x: 0.33333334, y: 0.33333334, z: 0.33333334, w: 0.33333334}
        outWeight: {x: 0.33333334, y: 0.33333334, z: 0.33333334, w: 0.33333334}
      - serializedVersion: 3
        time: 1.2333333
        value: {x: -0.00000006489515, y: 0.000000014879081, z: 0.22348, w: -0.9747085}
        inSlope: {x: -0.000000058466064, y: -0.00000025586306, z: -3.8429978, w: -0.878146}
        outSlope: {x: -0.000000058466064, y: -0.00000025586306, z: -3.8429978, w: -0.878146}
        tangentMode: 0
        weightedMode: 0
        inWeight: {x: 0.33333334, y: 0.33333334, z: 0.33333334, w: 0.33333334}
        outWeight: {x: 0.33333334, y: 0.33333334, z: 0.33333334, w: 0.33333334}
      - serializedVersion: 3
        time: 1.4000001
        value: {x: -0.00000005996146, y: -0.000000028937702, z: -0.4346369, w: -0.9006058}
        inSlope: {x: 0.00000011928933, y: -0.00000024689245, z: -3.7082617, w: 1.791695}
        outSlope: {x: 0.00000011928933, y: -0.00000024689245, z: -3.7082617, w: 1.791695}
        tangentMode: 0
        weightedMode: 0
        inWeight: {x: 0.33333334, y: 0.33333334, z: 0.33333334, w: 0.33333334}
        outWeight: {x: 0.33333334, y: 0.33333334, z: 0.33333334, w: 0.33333334}
      - serializedVersion: 3
        time: 1.5666667
        value: {x: -0.00000002736348, y: -0.00000006069602, z: -0.91163874, w: -0.4109925}
        inSlope: {x: 0.000000255595, y: -0.00000011517729, z: -1.7299335, w: 3.838972}
        outSlope: {x: 0.000000255595, y: -0.00000011517729, z: -1.7299335, w: 3.838972}
        tangentMode: 0
        weightedMode: 0
        inWeight: {x: 0.33333334, y: 0.33333334, z: 0.33333334, w: 0.33333334}
        outWeight: {x: 0.33333334, y: 0.33333334, z: 0.33333334, w: 0.33333334}
      - serializedVersion: 3
        time: 1.7333335
        value: {x: 0.00000001856261, y: -0.00000006393901, z: -0.9603476, w: 0.27880567}
        inSlope: {x: 0.00000026977557, y: 0.00000007828764, z: 1.1758595, w: 4.051961}
        outSlope: {x: 0.00000026977557, y: 0.00000007828764, z: 1.1758595, w: 4.051961}
        tangentMode: 0
        weightedMode: 0
        inWeight: {x: 0.33333334, y: 0.33333334, z: 0.33333334, w: 0.33333334}
        outWeight: {x: 0.33333334, y: 0.33333334, z: 0.33333334, w: 0.33333334}
      - serializedVersion: 3
        time: 1.9000001
        value: {x: 0.000000055404456, y: -0.00000003692036, z: -0.5545344, w: 0.83216083}
        inSlope: {x: 0.00000015307455, y: 0.00000022951451, z: 3.44725, w: 2.299141}
        outSlope: {x: 0.00000015307455, y: 0.00000022951451, z: 3.44725, w: 2.299141}
        tangentMode: 0
        weightedMode: 0
        inWeight: {x: 0.33333334, y: 0.33333334, z: 0.33333334, w: 0.33333334}
        outWeight: {x: 0.33333334, y: 0.33333334, z: 0.33333334, w: 0.33333334}
      - serializedVersion: 3
        time: 2.0666668
        value: {x: 0.00000006629214, y: 0.0000000061740466, z: 0.0927326, w: 0.99569106}
        inSlope: {x: -0.000000024418677, y: 0.00000026412687, z: 3.9671178, w: -0.36676383}
        outSlope: {x: -0.000000024418677, y: 0.00000026412687, z: 3.9671178, w: -0.36676383}
        tangentMode: 0
        weightedMode: 0
        inWeight: {x: 0.33333334, y: 0.33333334, z: 0.33333334, w: 0.33333334}
        outWeight: {x: 0.33333334, y: 0.33333334, z: 0.33333334, w: 0.33333334}
      - serializedVersion: 3
        time: 2.2333333
        value: {x: 0.000000049183, y: 0.000000044875378, z: 0.6740167, w: 0.7387161}
        inSlope: {x: -0.00000016767149, y: 0.00000018412123, z: 2.7654538, w: -2.5183833}
        outSlope: {x: -0.00000016767149, y: 0.00000018412123, z: 2.7654538, w: -2.5183833}
        tangentMode: 0
        weightedMode: 0
        inWeight: {x: 0.33333334, y: 0.33333334, z: 0.33333334, w: 0.33333334}
        outWeight: {x: 0.33333334, y: 0.33333334, z: 0.33333334, w: 0.33333334}
      - serializedVersion: 3
        time: 2.4333334
        value: {x: 0.00000000794979, y: 0.00000006610271, z: 0.9928458, w: 0.11940382}
        inSlope: {x: -0.00000022050136, y: 0.000000026809301, z: 0.40266788, w: -3.311874}
        outSlope: {x: -0.00000022050136, y: 0.000000026809301, z: 0.40266788, w: -3.311874}
        tangentMode: 0
        weightedMode: 0
        inWeight: {x: 0.33333334, y: 0.33333334, z: 0.33333334, w: 0.33333334}
        outWeight: {x: 0.33333334, y: 0.33333334, z: 0.33333334, w: 0.33333334}
      - serializedVersion: 3
        time: 2.6666667
        value: {x: -0.000000037061863, y: 0.000000055309908, z: 0.8307407, w: -0.5566597}
        inSlope: {x: -0.00000015008169, y: -0.00000010019781, z: -1.504945, w: -2.2541895}
        outSlope: {x: -0.00000015008169, y: -0.00000010019781, z: -1.504945, w: -2.2541895}
        tangentMode: 0
        weightedMode: 0
        inWeight: {x: 0.33333334, y: 0.33333334, z: 0.33333334, w: 0.33333334}
        outWeight: {x: 0.33333334, y: 0.33333334, z: 0.33333334, w: 0.33333334}
      - serializedVersion: 3
        time: 3.0000002
        value: {x: -0.000000064272264, y: 0.00000001737362, z: 0.26094735, w: -0.965353}
        inSlope: {x: -0.000000026735758, y: -0.00000009802572, z: -1.4723214, w: -0.40156463}
        outSlope: {x: -0.000000026735758, y: -0.00000009802572, z: -1.4723214, w: -0.40156463}
        tangentMode: 0
        weightedMode: 0
        inWeight: {x: 0.33333334, y: 0.33333334, z: 0.33333334, w: 0.33333334}
        outWeight: {x: 0.33333334, y: 0.33333334, z: 0.33333334, w: 0.33333334}
      - serializedVersion: 3
        time: 3.266667
        value: {x: -0.000000066574884, y: 7.433419e-10, z: 0.011164806, w: -0.9999377}
        inSlope: {x: -3.0695477e-10, y: -0.000000022109855, z: -0.33208436, w: -0.0046098274}
        outSlope: {x: -3.0695477e-10, y: -0.000000022109855, z: -0.33208436, w: -0.0046098274}
        tangentMode: 0
        weightedMode: 0
        inWeight: {x: 0.33333334, y: 0.33333334, z: 0.33333334, w: 0.33333334}
        outWeight: {x: 0.33333334, y: 0.33333334, z: 0.33333334, w: 0.33333334}
      - serializedVersion: 3
        time: 3.3333335
        value: {x: -0.00000006657903, y: 2.4460737e-23, z: 3.6739403e-16, w: -1}
        inSlope: {x: -7.887032e-12, y: -0.0000000056129448, z: -0.084304996, w: -0.000118017306}
        outSlope: {x: -7.887032e-12, y: -0.0000000056129448, z: -0.084304996, w: -0.000118017306}
        tangentMode: 0
        weightedMode: 0
        inWeight: {x: 0.33333334, y: 0.33333334, z: 0.33333334, w: 0.33333334}
        outWeight: {x: 0.33333334, y: 0.33333334, z: 0.33333334, w: 0.33333334}
      m_PreInfinity: 2
      m_PostInfinity: 2
      m_RotationOrder: 4
    path: Object009
  - curve:
      serializedVersion: 2
      m_Curve:
      - serializedVersion: 3
        time: 0
        value: {x: 0.00000006657903, y: -0, z: -0, w: 1}
        inSlope: {x: -4.2632561e-13, y: 0.000000001389234, z: 0.020865938, w: -0.000007152557}
        outSlope: {x: -4.2632561e-13, y: 0.000000001389234, z: 0.020865938, w: -0.000007152557}
        tangentMode: 0
        weightedMode: 0
        inWeight: {x: 0.33333334, y: 0.33333334, z: 0.33333334, w: 0.33333334}
        outWeight: {x: 0.33333334, y: 0.33333334, z: 0.33333334, w: 0.33333334}
      - serializedVersion: 3
        time: 0.73333335
        value: {x: 0.000000064012156, y: 0.000000018308775, z: 0.27499312, w: 0.96144617}
        inSlope: {x: -0.000000012403305, y: 0.000000043311676, z: 0.65053046, w: -0.18629283}
        outSlope: {x: -0.000000012403305, y: 0.000000043311676, z: 0.65053046, w: -0.18629283}
        tangentMode: 0
        weightedMode: 0
        inWeight: {x: 0.33333334, y: 0.33333334, z: 0.33333334, w: 0.33333334}
        outWeight: {x: 0.33333334, y: 0.33333334, z: 0.33333334, w: 0.33333334}
      - serializedVersion: 3
        time: 1.3000001
        value: {x: 0.000000049702386, y: 0.000000044299433, z: 0.6653662, w: 0.7465172}
        inSlope: {x: -0.00000003807939, y: 0.00000004272075, z: 0.6416556, w: -0.57194227}
        outSlope: {x: -0.00000003807939, y: 0.00000004272075, z: 0.6416556, w: -0.57194227}
        tangentMode: 0
        weightedMode: 0
        inWeight: {x: 0.33333334, y: 0.33333334, z: 0.33333334, w: 0.33333334}
        outWeight: {x: 0.33333334, y: 0.33333334, z: 0.33333334, w: 0.33333334}
      - serializedVersion: 3
        time: 1.8666668
        value: {x: 0.000000024303379, y: 0.00000006198478, z: 0.9309955, w: 0.36503053}
        inSlope: {x: -0.000000046257917, y: 0.000000018150903, z: 0.27262038, w: -0.69478184}
        outSlope: {x: -0.000000046257917, y: 0.000000018150903, z: 0.27262038, w: -0.69478184}
        tangentMode: 0
        weightedMode: 0
        inWeight: {x: 0.33333334, y: 0.33333334, z: 0.33333334, w: 0.33333334}
        outWeight: {x: 0.33333334, y: 0.33333334, z: 0.33333334, w: 0.33333334}
      - serializedVersion: 3
        time: 2.7
        value: {x: 4.630468e-11, y: 0.00000006657901, z: 0.99999976, w: 0.00069548446}
        inSlope: {x: -0.000000002754737, y: 3.836933e-12, z: 0.000057220488, w: -0.041375447}
        outSlope: {x: -0.000000002754737, y: 3.836933e-12, z: 0.000057220488, w: -0.041375447}
        tangentMode: 0
        weightedMode: 0
        inWeight: {x: 0.33333334, y: 0.33333334, z: 0.33333334, w: 0.33333334}
        outWeight: {x: 0.33333334, y: 0.33333334, z: 0.33333334, w: 0.33333334}
      - serializedVersion: 3
        time: 2.7333336
        value: {x: 5.31932e-14, y: 0.00000006657903, z: 1, w: 0.00000079894835}
        inSlope: {x: 0.00000024201688, y: -0.000000029941837, z: -0.44971746, w: 3.6350312}
        outSlope: {x: 0.00000024201688, y: -0.000000029941837, z: -0.44971746, w: 3.6350312}
        tangentMode: 0
        weightedMode: 0
        inWeight: {x: 0.33333334, y: 0.33333334, z: 0.33333334, w: 0.33333334}
        outWeight: {x: 0.33333334, y: 0.33333334, z: 0.33333334, w: 0.33333334}
      - serializedVersion: 3
        time: 2.766667
        value: {x: 0.000000016180747, y: 0.00000006458289, z: 0.9700186, w: 0.24303068}
        inSlope: {x: 0.0000007061792, y: -0.00000029251055, z: -4.393434, w: 10.606632}
        outSlope: {x: 0.0000007061792, y: -0.00000029251055, z: -4.393434, w: 10.606632}
        tangentMode: 0
        weightedMode: 0
        inWeight: {x: 0.33333334, y: 0.33333334, z: 0.33333334, w: 0.33333334}
        outWeight: {x: 0.33333334, y: 0.33333334, z: 0.33333334, w: 0.33333334}
      - serializedVersion: 3
        time: 2.8000002
        value: {x: 0.000000047078622, y: 0.00000004707834, z: 0.7071047, w: 0.7071089}
        inSlope: {x: 0.00000072603393, y: -0.00000072603694, z: -10.904891, w: 10.904844}
        outSlope: {x: 0.00000072603393, y: -0.00000072603694, z: -10.904891, w: 10.904844}
        tangentMode: 0
        weightedMode: 0
        inWeight: {x: 0.33333334, y: 0.33333334, z: 0.33333334, w: 0.33333334}
        outWeight: {x: 0.33333334, y: 0.33333334, z: 0.33333334, w: 0.33333334}
      - serializedVersion: 3
        time: 2.8333335
        value: {x: 0.00000006458296, y: 0.000000016180477, z: 0.24302663, w: 0.97001964}
        inSlope: {x: 0.00000029250637, y: -0.0000007061758, z: -10.606581, w: 4.3933706}
        outSlope: {x: 0.00000029250637, y: -0.0000007061758, z: -10.606581, w: 4.3933706}
        tangentMode: 0
        weightedMode: 0
        inWeight: {x: 0.33333334, y: 0.33333334, z: 0.33333334, w: 0.33333334}
        outWeight: {x: 0.33333334, y: 0.33333334, z: 0.33333334, w: 0.33333334}
      - serializedVersion: 3
        time: 2.8666668
        value: {x: 0.00000006657903, y: -0, z: -0, w: 1}
        inSlope: {x: 0.00000005988197, y: -0.0000004854148, z: -7.290806, w: 0.8994117}
        outSlope: {x: 0.00000005988197, y: -0.0000004854148, z: -7.290806, w: 0.8994117}
        tangentMode: 0
        weightedMode: 0
        inWeight: {x: 0.33333334, y: 0.33333334, z: 0.33333334, w: 0.33333334}
        outWeight: {x: 0.33333334, y: 0.33333334, z: 0.33333334, w: 0.33333334}
      m_PreInfinity: 2
      m_PostInfinity: 2
      m_RotationOrder: 4
    path: Object010
  - curve:
      serializedVersion: 2
      m_Curve:
      - serializedVersion: 3
        time: 0
        value: {x: 0.70419705, y: 0.06408218, z: 0.06408218, w: -0.70419705}
        inSlope: {x: -0.020422338, y: -0.06453484, z: -0.0379651, w: -0.029586552}
        outSlope: {x: -0.020422338, y: -0.06453484, z: -0.0379651, w: -0.029586552}
        tangentMode: 0
        weightedMode: 0
        inWeight: {x: 0.33333334, y: 0.33333334, z: 0.33333334, w: 0.33333334}
        outWeight: {x: 0.33333334, y: 0.33333334, z: 0.33333334, w: 0.33333334}
      - serializedVersion: 3
        time: 0.3
        value: {x: 0.64868873, y: -0.09698585, z: -0.01242274, w: -0.75474656}
        inSlope: {x: -0.37468854, y: -1.0243878, z: -0.38347393, w: -0.18180193}
        outSlope: {x: -0.37468854, y: -1.0243878, z: -0.38347393, w: -0.18180193}
        tangentMode: 0
        weightedMode: 0
        inWeight: {x: 0.33333334, y: 0.33333334, z: 0.33333334, w: 0.33333334}
        outWeight: {x: 0.33333334, y: 0.33333334, z: 0.33333334, w: 0.33333334}
      - serializedVersion: 3
        time: 0.5666667
        value: {x: 0.5200764, y: -0.44092557, z: -0.08290024, w: -0.7267962}
        inSlope: {x: -0.5036187, y: -1.4045477, z: -0.061013304, w: 0.49920568}
        outSlope: {x: -0.5036187, y: -1.4045477, z: -0.061013304, w: 0.49920568}
        tangentMode: 0
        weightedMode: 0
        inWeight: {x: 0.33333334, y: 0.33333334, z: 0.33333334, w: 0.33333334}
        outWeight: {x: 0.33333334, y: 0.33333334, z: 0.33333334, w: 0.33333334}
      - serializedVersion: 3
        time: 0.8333334
        value: {x: 0.43567416, y: -0.7553706, z: -0.042824283, w: -0.487616}
        inSlope: {x: -0.046884604, y: -0.80779386, z: 0.28408277, w: 1.1826355}
        outSlope: {x: -0.046884604, y: -0.80779386, z: 0.28408277, w: 1.1826355}
        tangentMode: 0
        weightedMode: 0
        inWeight: {x: 0.33333334, y: 0.33333334, z: 0.33333334, w: 0.33333334}
        outWeight: {x: 0.33333334, y: 0.33333334, z: 0.33333334, w: 0.33333334}
      - serializedVersion: 3
        time: 1.2
        value: {x: 0.54416424, y: -0.833189, z: 0.019034505, w: -0.096535094}
        inSlope: {x: 0.48882592, y: 0.23522101, z: -0.026766991, w: 0.7114226}
        outSlope: {x: 0.48882592, y: 0.23522101, z: -0.026766991, w: 0.7114226}
        tangentMode: 0
        weightedMode: 0
        inWeight: {x: 0.33333334, y: 0.33333334, z: 0.33333334, w: 0.33333334}
        outWeight: {x: 0.33333334, y: 0.33333334, z: 0.33333334, w: 0.33333334}
      - serializedVersion: 3
        time: 1.5333334
        value: {x: 0.69046646, y: -0.72336316, z: 0.0009767071, w: -0.0009378713}
        inSlope: {x: 0.37248856, y: 0.35583562, z: 0.030147277, w: -0.029882891}
        outSlope: {x: 0.37248856, y: 0.35583562, z: 0.030147277, w: -0.029882891}
        tangentMode: 0
        weightedMode: 0
        inWeight: {x: 0.33333334, y: 0.33333334, z: 0.33333334, w: 0.33333334}
        outWeight: {x: 0.33333334, y: 0.33333334, z: 0.33333334, w: 0.33333334}
      - serializedVersion: 3
        time: 2.1666667
        value: {x: 0.91379595, y: -0.4040759, z: 0.031343587, w: -0.026780536}
        inSlope: {x: 0.2658885, y: 0.6081848, z: 0.06381929, w: -0.029928118}
        outSlope: {x: 0.2658885, y: 0.6081848, z: 0.06381929, w: -0.029928118}
        tangentMode: 0
        weightedMode: 0
        inWeight: {x: 0.33333334, y: 0.33333334, z: 0.33333334, w: 0.33333334}
        outWeight: {x: 0.33333334, y: 0.33333334, z: 0.33333334, w: 0.33333334}
      - serializedVersion: 3
        time: 2.8333335
        value: {x: 0.9966522, y: -0.027681453, z: 0.07267522, w: -0.025229042}
        inSlope: {x: 0.009339461, y: 0.43276495, z: 0.04805506, w: 0.02634105}
        outSlope: {x: 0.009339461, y: 0.43276495, z: 0.04805506, w: 0.02634105}
        tangentMode: 0
        weightedMode: 0
        inWeight: {x: 0.33333334, y: 0.33333334, z: 0.33333334, w: 0.33333334}
        outWeight: {x: 0.33333334, y: 0.33333334, z: 0.33333334, w: 0.33333334}
      - serializedVersion: 3
        time: 3.3333335
        value: {x: 0.9921594, y: 0.089631945, z: 0.085663855, w: -0.015733084}
        inSlope: {x: -0.0017559545, y: 0.017874258, z: 0.0020232815, w: 0.0018454174}
        outSlope: {x: -0.0017559545, y: 0.017874258, z: 0.0020232815, w: 0.0018454174}
        tangentMode: 0
        weightedMode: 0
        inWeight: {x: 0.33333334, y: 0.33333334, z: 0.33333334, w: 0.33333334}
        outWeight: {x: 0.33333334, y: 0.33333334, z: 0.33333334, w: 0.33333334}
      m_PreInfinity: 2
      m_PostInfinity: 2
      m_RotationOrder: 4
    path: Sphere002
  - curve:
      serializedVersion: 2
      m_Curve:
      - serializedVersion: 3
        time: 0
        value: {x: 0.36470926, y: 0.028439693, z: 0.50714225, w: 0.780375}
        inSlope: {x: -0.01425594, y: -0.021930745, z: 0.010242461, w: 0.0007885694}
        outSlope: {x: -0.01425594, y: -0.021930745, z: 0.010242461, w: 0.0007885694}
        tangentMode: 0
        weightedMode: 0
        inWeight: {x: 0.33333334, y: 0.33333334, z: 0.33333334, w: 0.33333334}
        outWeight: {x: 0.33333334, y: 0.33333334, z: 0.33333334, w: 0.33333334}
      - serializedVersion: 3
        time: 0.5
        value: {x: 0.26184827, y: -0.120159835, z: 0.56713456, w: 0.7715929}
        inSlope: {x: -0.4089685, y: -0.55617976, z: 0.18849492, w: -0.0869894}
        outSlope: {x: -0.4089685, y: -0.55617976, z: 0.18849492, w: -0.0869894}
        tangentMode: 0
        weightedMode: 0
        inWeight: {x: 0.33333334, y: 0.33333334, z: 0.33333334, w: 0.33333334}
        outWeight: {x: 0.33333334, y: 0.33333334, z: 0.33333334, w: 0.33333334}
      - serializedVersion: 3
        time: 1.0666667
        value: {x: -0.08459754, y: -0.516597, z: 0.6189097, w: 0.5855951}
        inSlope: {x: -0.7611634, y: -0.72001016, z: -0.10430495, w: -0.63560814}
        outSlope: {x: -0.7611634, y: -0.72001016, z: -0.10430495, w: -0.63560814}
        tangentMode: 0
        weightedMode: 0
        inWeight: {x: 0.33333334, y: 0.33333334, z: 0.33333334, w: 0.33333334}
        outWeight: {x: 0.33333334, y: 0.33333334, z: 0.33333334, w: 0.33333334}
      - serializedVersion: 3
        time: 1.5000001
        value: {x: -0.408378, y: -0.752346, z: 0.47268745, w: 0.2092117}
        inSlope: {x: -0.66108656, y: -0.29252142, z: -0.5712546, w: -1.0523243}
        outSlope: {x: -0.66108656, y: -0.29252142, z: -0.5712546, w: -1.0523243}
        tangentMode: 0
        weightedMode: 0
        inWeight: {x: 0.33333334, y: 0.33333334, z: 0.33333334, w: 0.33333334}
        outWeight: {x: 0.33333334, y: 0.33333334, z: 0.33333334, w: 0.33333334}
      - serializedVersion: 3
        time: 1.9333334
        value: {x: -0.60528564, y: -0.7368929, z: 0.15438709, w: -0.25842395}
        inSlope: {x: -0.21266595, y: 0.3556123, z: -0.8332528, w: -1.0145184}
        outSlope: {x: -0.21266595, y: 0.3556123, z: -0.8332528, w: -1.0145184}
        tangentMode: 0
        weightedMode: 0
        inWeight: {x: 0.33333334, y: 0.33333334, z: 0.33333334, w: 0.33333334}
        outWeight: {x: 0.33333334, y: 0.33333334, z: 0.33333334, w: 0.33333334}
      - serializedVersion: 3
        time: 2.4
        value: {x: -0.58758986, y: -0.46478, z: -0.21200067, w: -0.6275137}
        inSlope: {x: 0.24130964, y: 0.71486926, z: -0.6696919, w: -0.5299388}
        outSlope: {x: 0.24130964, y: 0.71486926, z: -0.6696919, w: -0.5299388}
        tangentMode: 0
        weightedMode: 0
        inWeight: {x: 0.33333334, y: 0.33333334, z: 0.33333334, w: 0.33333334}
        outWeight: {x: 0.33333334, y: 0.33333334, z: 0.33333334, w: 0.33333334}
      - serializedVersion: 3
        time: 3.2000003
        value: {x: -0.37211707, y: -0.039896004, z: -0.50173193, w: -0.77987325}
        inSlope: {x: 0.10883209, y: 0.16926739, z: -0.080864325, w: -0.008805663}
        outSlope: {x: 0.10883209, y: 0.16926739, z: -0.080864325, w: -0.008805663}
        tangentMode: 0
        weightedMode: 0
        inWeight: {x: 0.33333334, y: 0.33333334, z: 0.33333334, w: 0.33333334}
        outWeight: {x: 0.33333334, y: 0.33333334, z: 0.33333334, w: 0.33333334}
      - serializedVersion: 3
        time: 3.3333335
        value: {x: -0.3647093, y: -0.028439637, z: -0.50714225, w: -0.78037494}
        inSlope: {x: 0.014243438, y: 0.021926353, z: -0.0102532, w: -0.00080823974}
        outSlope: {x: 0.014243438, y: 0.021926353, z: -0.0102532, w: -0.00080823974}
        tangentMode: 0
        weightedMode: 0
        inWeight: {x: 0.33333334, y: 0.33333334, z: 0.33333334, w: 0.33333334}
        outWeight: {x: 0.33333334, y: 0.33333334, z: 0.33333334, w: 0.33333334}
      m_PreInfinity: 2
      m_PostInfinity: 2
      m_RotationOrder: 4
    path: Sphere004
  - curve:
      serializedVersion: 2
      m_Curve:
      - serializedVersion: 3
        time: 0
        value: {x: -0.7210132, y: 0.43785223, z: 0.042381223, w: 0.5353777}
        inSlope: {x: -0.015036463, y: -0.0011971592, z: 0.012304409, w: -0.020270346}
        outSlope: {x: -0.015036463, y: -0.0011971592, z: 0.012304409, w: -0.020270346}
        tangentMode: 0
        weightedMode: 0
        inWeight: {x: 0.33333334, y: 0.33333334, z: 0.33333334, w: 0.33333334}
        outWeight: {x: 0.33333334, y: 0.33333334, z: 0.33333334, w: 0.33333334}
      - serializedVersion: 3
        time: 0.5
        value: {x: -0.80950546, y: 0.4218546, z: 0.124697395, w: 0.38883185}
        inSlope: {x: -0.2799216, y: -0.09009451, z: 0.30405378, w: -0.58375376}
        outSlope: {x: -0.2799216, y: -0.09009451, z: 0.30405378, w: -0.58375376}
        tangentMode: 0
        weightedMode: 0
        inWeight: {x: 0.33333334, y: 0.33333334, z: 0.33333334, w: 0.33333334}
        outWeight: {x: 0.33333334, y: 0.33333334, z: 0.33333334, w: 0.33333334}
      - serializedVersion: 3
        time: 1.0666667
        value: {x: -0.8915246, y: 0.28840417, z: 0.33216527, w: -0.10804214}
        inSlope: {x: 0.13325405, y: -0.40865147, z: 0.3545705, w: -1.0964434}
        outSlope: {x: 0.13325405, y: -0.40865147, z: 0.3545705, w: -1.0964434}
        tangentMode: 0
        weightedMode: 0
        inWeight: {x: 0.33333334, y: 0.33333334, z: 0.33333334, w: 0.33333334}
        outWeight: {x: 0.33333334, y: 0.33333334, z: 0.33333334, w: 0.33333334}
      - serializedVersion: 3
        time: 1.5000001
        value: {x: -0.68842965, y: 0.06064707, z: 0.4356979, w: -0.5766749}
        inSlope: {x: 0.80667996, y: -0.6094142, z: 0.084768884, w: -0.9628237}
        outSlope: {x: 0.80667996, y: -0.6094142, z: 0.084768884, w: -0.9628237}
        tangentMode: 0
        weightedMode: 0
        inWeight: {x: 0.33333334, y: 0.33333334, z: 0.33333334, w: 0.33333334}
        outWeight: {x: 0.33333334, y: 0.33333334, z: 0.33333334, w: 0.33333334}
      - serializedVersion: 3
        time: 1.9333334
        value: {x: -0.23519489, y: -0.19930765, z: 0.3921571, w: -0.86670214}
        inSlope: {x: 1.1931179, y: -0.53991395, z: -0.27430034, w: -0.3239668}
        outSlope: {x: 1.1931179, y: -0.53991395, z: -0.27430034, w: -0.3239668}
        tangentMode: 0
        weightedMode: 0
        inWeight: {x: 0.33333334, y: 0.33333334, z: 0.33333334, w: 0.33333334}
        outWeight: {x: 0.33333334, y: 0.33333334, z: 0.33333334, w: 0.33333334}
      - serializedVersion: 3
        time: 2.4
        value: {x: 0.29186797, y: -0.38507685, z: 0.21266536, w: -0.8492952}
        inSlope: {x: 0.96795917, y: -0.24252647, z: -0.43871707, w: 0.33219904}
        outSlope: {x: 0.96795917, y: -0.24252647, z: -0.43871707, w: 0.33219904}
        tangentMode: 0
        weightedMode: 0
        inWeight: {x: 0.33333334, y: 0.33333334, z: 0.33333334, w: 0.33333334}
        outWeight: {x: 0.33333334, y: 0.33333334, z: 0.33333334, w: 0.33333334}
      - serializedVersion: 3
        time: 3.2000003
        value: {x: 0.7130736, y: -0.43842736, z: -0.035946965, w: -0.54590774}
        inSlope: {x: 0.118626595, y: 0.007719822, z: -0.0951699, w: 0.15467447}
        outSlope: {x: 0.118626595, y: 0.007719822, z: -0.0951699, w: 0.15467447}
        tangentMode: 0
        weightedMode: 0
        inWeight: {x: 0.33333334, y: 0.33333334, z: 0.33333334, w: 0.33333334}
        outWeight: {x: 0.33333334, y: 0.33333334, z: 0.33333334, w: 0.33333334}
      - serializedVersion: 3
        time: 3.3333335
        value: {x: 0.72101325, y: -0.43785223, z: -0.042381253, w: -0.5353776}
        inSlope: {x: 0.015052571, y: 0.0011855375, z: -0.012303752, w: 0.020254273}
        outSlope: {x: 0.015052571, y: 0.0011855375, z: -0.012303752, w: 0.020254273}
        tangentMode: 0
        weightedMode: 0
        inWeight: {x: 0.33333334, y: 0.33333334, z: 0.33333334, w: 0.33333334}
        outWeight: {x: 0.33333334, y: 0.33333334, z: 0.33333334, w: 0.33333334}
      m_PreInfinity: 2
      m_PostInfinity: 2
      m_RotationOrder: 4
    path: Sphere005
  - curve:
      serializedVersion: 2
      m_Curve:
      - serializedVersion: 3
        time: 0
        value: {x: 0.000000052820692, y: 0.000000040530747, z: 0.6087615, w: 0.7933533}
        inSlope: {x: -0.000000011103437, y: 0.000000014335092, z: 0.21530806, w: -0.1667708}
        outSlope: {x: -0.000000011103437, y: 0.000000014335092, z: 0.21530806, w: -0.1667708}
        tangentMode: 0
        weightedMode: 0
        inWeight: {x: 0.33333334, y: 0.33333334, z: 0.33333334, w: 0.33333334}
        outWeight: {x: 0.33333334, y: 0.33333334, z: 0.33333334, w: 0.33333334}
      - serializedVersion: 3
        time: 0.10000001
        value: {x: 0.0000000504456, y: 0.00000004345122, z: 0.6526262, w: 0.75768}
        inSlope: {x: -0.000000030860537, y: 0.000000035980122, z: 0.5404123, w: -0.46351787}
        outSlope: {x: -0.000000030860537, y: 0.000000035980122, z: 0.5404123, w: -0.46351787}
        tangentMode: 0
        weightedMode: 0
        inWeight: {x: 0.33333334, y: 0.33333334, z: 0.33333334, w: 0.33333334}
        outWeight: {x: 0.33333334, y: 0.33333334, z: 0.33333334, w: 0.33333334}
      - serializedVersion: 3
        time: 0.16666667
        value: {x: 0.000000049087205, y: 0.00000004498014, z: 0.6755903, w: 0.73727727}
        inSlope: {x: 0.00000000898225, y: -0.000000010119898, z: -0.15199801, w: 0.13491145}
        outSlope: {x: 0.00000000898225, y: -0.000000010119898, z: -0.15199801, w: 0.13491145}
        tangentMode: 0
        weightedMode: 0
        inWeight: {x: 0.33333334, y: 0.33333334, z: 0.33333334, w: 0.33333334}
        outWeight: {x: 0.33333334, y: 0.33333334, z: 0.33333334, w: 0.33333334}
      - serializedVersion: 3
        time: 0.26666668
        value: {x: 0.000000052820692, y: 0.000000040530747, z: 0.6087615, w: 0.7933533}
        inSlope: {x: 5.069545e-10, y: -6.311751e-10, z: -0.009479821, w: 0.0076147914}
        outSlope: {x: 5.069545e-10, y: -6.311751e-10, z: -0.009479821, w: 0.0076147914}
        tangentMode: 0
        weightedMode: 0
        inWeight: {x: 0.33333334, y: 0.33333334, z: 0.33333334, w: 0.33333334}
        outWeight: {x: 0.33333334, y: 0.33333334, z: 0.33333334, w: 0.33333334}
      - serializedVersion: 3
        time: 0.33333334
        value: {x: 0.000000051002495, y: 0.00000004279618, z: 0.6427877, w: 0.76604444}
        inSlope: {x: 0, y: 0, z: 0, w: 0}
        outSlope: {x: 0, y: 0, z: 0, w: 0}
        tangentMode: 0
        weightedMode: 0
        inWeight: {x: 0.33333334, y: 0.33333334, z: 0.33333334, w: 0.33333334}
        outWeight: {x: 0.33333334, y: 0.33333334, z: 0.33333334, w: 0.33333334}
      - serializedVersion: 3
        time: 0.36666667
        value: {x: 0.000000051923948, y: 0.000000041673378, z: 0.6259235, w: 0.77988446}
        inSlope: {x: 0.000000027272947, y: -0.0000000339815, z: -0.5103929, w: 0.40963307}
        outSlope: {x: 0.000000027272947, y: -0.0000000339815, z: -0.5103929, w: 0.40963307}
        tangentMode: 0
        weightedMode: 0
        inWeight: {x: 0.33333334, y: 0.33333334, z: 0.33333334, w: 0.33333334}
        outWeight: {x: 0.33333334, y: 0.33333334, z: 0.33333334, w: 0.33333334}
      - serializedVersion: 3
        time: 0.40000004
        value: {x: 0.000000052820692, y: 0.000000040530747, z: 0.6087615, w: 0.7933533}
        inSlope: {x: 0.000000026902297, y: -0.000000034278898, z: -0.51486033, w: 0.40406552}
        outSlope: {x: 0.000000026902297, y: -0.000000034278898, z: -0.51486033, w: 0.40406552}
        tangentMode: 0
        weightedMode: 0
        inWeight: {x: 0.33333334, y: 0.33333334, z: 0.33333334, w: 0.33333334}
        outWeight: {x: 0.33333334, y: 0.33333334, z: 0.33333334, w: 0.33333334}
      m_PreInfinity: 2
      m_PostInfinity: 2
      m_RotationOrder: 4
    path: Object012
  - curve:
      serializedVersion: 2
      m_Curve:
      - serializedVersion: 3
        time: 0
        value: {x: 0.000000047078494, y: -0.00000004707847, z: -0.7071066, w: 0.70710695}
        inSlope: {x: 0.0000000013225686, y: 0.0000000013238476, z: 0.019884108, w: 0.019866226}
        outSlope: {x: 0.0000000013225686, y: 0.0000000013238476, z: 0.019884108, w: 0.019866226}
        tangentMode: 0
        weightedMode: 0
        inWeight: {x: 0.33333334, y: 0.33333334, z: 0.33333334, w: 0.33333334}
        outWeight: {x: 0.33333334, y: 0.33333334, z: 0.33333334, w: 0.33333334}
      - serializedVersion: 3
        time: 0.5
        value: {x: 0.000000055156658, y: -0.00000003728955, z: -0.5600795, w: 0.82843894}
        inSlope: {x: 0.000000026855584, y: 0.000000039779806, z: 0.5974826, w: 0.40336403}
        outSlope: {x: 0.000000026855584, y: 0.000000039779806, z: 0.5974826, w: 0.40336403}
        tangentMode: 0
        weightedMode: 0
        inWeight: {x: 0.33333334, y: 0.33333334, z: 0.33333334, w: 0.33333334}
        outWeight: {x: 0.33333334, y: 0.33333334, z: 0.33333334, w: 0.33333334}
      - serializedVersion: 3
        time: 1.0666667
        value: {x: 0.00000006655637, y: -0.0000000017369469, z: -0.026088499, w: 0.99965966}
        inSlope: {x: 0.0000000021086086, y: 0.00000008185865, z: 1.229496, w: 0.031669766}
        outSlope: {x: 0.0000000021086086, y: 0.00000008185865, z: 1.229496, w: 0.031669766}
        tangentMode: 0
        weightedMode: 0
        inWeight: {x: 0.33333334, y: 0.33333334, z: 0.33333334, w: 0.33333334}
        outWeight: {x: 0.33333334, y: 0.33333334, z: 0.33333334, w: 0.33333334}
      - serializedVersion: 3
        time: 1.5000001
        value: {x: 0.000000056739392, y: 0.00000003483401, z: 0.52319795, w: 0.8522112}
        inSlope: {x: -0.00000004872941, y: 0.000000079356134, z: 1.1919091, w: -0.7319037}
        outSlope: {x: -0.00000004872941, y: 0.000000079356134, z: 1.1919091, w: -0.7319037}
        tangentMode: 0
        weightedMode: 0
        inWeight: {x: 0.33333334, y: 0.33333334, z: 0.33333334, w: 0.33333334}
        outWeight: {x: 0.33333334, y: 0.33333334, z: 0.33333334, w: 0.33333334}
      - serializedVersion: 3
        time: 1.9333334
        value: {x: 0.000000026641418, y: 0.00000006101641, z: 0.91645086, w: 0.4001473}
        inSlope: {x: -0.000000083994394, y: 0.000000036689237, z: 0.551063, w: -1.2615746}
        outSlope: {x: -0.000000083994394, y: 0.000000036689237, z: 0.551063, w: -1.2615746}
        tangentMode: 0
        weightedMode: 0
        inWeight: {x: 0.33333334, y: 0.33333334, z: 0.33333334, w: 0.33333334}
        outWeight: {x: 0.33333334, y: 0.33333334, z: 0.33333334, w: 0.33333334}
      - serializedVersion: 3
        time: 2.4
        value: {x: -0.000000012202724, y: 0.000000065451204, z: 0.9830604, w: -0.1832818}
        inSlope: {x: -0.0000000745915, y: -0.000000013874888, z: -0.20839623, w: -1.1203452}
        outSlope: {x: -0.0000000745915, y: -0.000000013874888, z: -0.20839623, w: -1.1203452}
        tangentMode: 0
        weightedMode: 0
        inWeight: {x: 0.33333334, y: 0.33333334, z: 0.33333334, w: 0.33333334}
        outWeight: {x: 0.33333334, y: 0.33333334, z: 0.33333334, w: 0.33333334}
      - serializedVersion: 3
        time: 3.2000003
        value: {x: -0.000000046382098, y: 0.00000004776471, z: 0.7174138, w: -0.6966473}
        inSlope: {x: -0.000000010376734, y: -0.000000010058857, z: -0.15108213, w: -0.15585554}
        outSlope: {x: -0.000000010376734, y: -0.000000010058857, z: -0.15108213, w: -0.15585554}
        tangentMode: 0
        weightedMode: 0
        inWeight: {x: 0.33333334, y: 0.33333334, z: 0.33333334, w: 0.33333334}
        outWeight: {x: 0.33333334, y: 0.33333334, z: 0.33333334, w: 0.33333334}
      - serializedVersion: 3
        time: 3.3333335
        value: {x: -0.000000047078508, y: 0.000000047078455, z: 0.7071064, w: -0.7071072}
        inSlope: {x: -0.0000000013238489, y: -0.0000000013226765, z: -0.019864459,
          w: -0.019884128}
        outSlope: {x: -0.0000000013238489, y: -0.0000000013226765, z: -0.019864459,
          w: -0.019884128}
        tangentMode: 0
        weightedMode: 0
        inWeight: {x: 0.33333334, y: 0.33333334, z: 0.33333334, w: 0.33333334}
        outWeight: {x: 0.33333334, y: 0.33333334, z: 0.33333334, w: 0.33333334}
      m_PreInfinity: 2
      m_PostInfinity: 2
      m_RotationOrder: 4
    path: Object015
  m_CompressedRotationCurves: []
  m_EulerCurves: []
  m_PositionCurves:
  - curve:
      serializedVersion: 2
      m_Curve:
      - serializedVersion: 3
        time: 0
        value: {x: -1.1559656e-34, y: -0.032072846, z: -5.639933e-18}
        inSlope: {x: -0, y: -0.00000041632856, z: -7.8269786e-32}
        outSlope: {x: -0, y: -0.00000041632856, z: -7.8269786e-32}
        tangentMode: 0
        weightedMode: 0
        inWeight: {x: 0.33333334, y: 0.33333334, z: 0.33333334}
        outWeight: {x: 0.33333334, y: 0.33333334, z: 0.33333334}
      - serializedVersion: 3
        time: 0.23333333
        value: {x: -1.1559656e-34, y: -0.048071288, z: -5.639933e-18}
        inSlope: {x: -0, y: -0.0000007407486, z: -3.3544215e-32}
        outSlope: {x: -0, y: -0.00000012978754, z: -7.826976e-32}
        tangentMode: 0
        weightedMode: 0
        inWeight: {x: 0.33333334, y: 0.33333334, z: 0.33333334}
        outWeight: {x: 0.33333334, y: 0.33333334, z: 0.33333334}
      - serializedVersion: 3
        time: 1.8666668
        value: {x: -1.1559656e-34, y: -0.039427686, z: -5.639933e-18}
        inSlope: {x: -0, y: 0.0077172155, z: -3.3544113e-32}
        outSlope: {x: -0, y: 0.007718471, z: -7.826987e-32}
        tangentMode: 0
        weightedMode: 0
        inWeight: {x: 0.33333334, y: 0.33333334, z: 0.33333334}
        outWeight: {x: 0.33333334, y: 0.33333334, z: 0.33333334}
      - serializedVersion: 3
        time: 3.3333333
        value: {x: -1.1559656e-34, y: -0.032072846, z: -5.639933e-18}
        inSlope: {x: -0, y: -0.00000012978865, z: -3.354447e-32}
        outSlope: {x: -0, y: -0.00000012978865, z: -3.354447e-32}
        tangentMode: 0
        weightedMode: 0
        inWeight: {x: 0.33333334, y: 0.33333334, z: 0.33333334}
        outWeight: {x: 0.33333334, y: 0.33333334, z: 0.33333334}
      m_PreInfinity: 2
      m_PostInfinity: 2
      m_RotationOrder: 4
    path: Sphere002
  - curve:
      serializedVersion: 2
      m_Curve:
      - serializedVersion: 3
        time: 0
        value: {x: -0, y: 0, z: 0}
        inSlope: {x: -0, y: 5.6171928e-11, z: -0}
        outSlope: {x: -0, y: 5.6171928e-11, z: -0}
        tangentMode: 0
        weightedMode: 0
        inWeight: {x: 0.33333334, y: 0.33333334, z: 0.33333334}
        outWeight: {x: 0.33333334, y: 0.33333334, z: 0.33333334}
      - serializedVersion: 3
        time: 1.6333334
        value: {x: -0, y: -0.040194917, z: 0}
        inSlope: {x: -0, y: -0.034139346, z: -0}
        outSlope: {x: -0, y: -0.034141466, z: -0}
        tangentMode: 0
        weightedMode: 0
        inWeight: {x: 0.33333334, y: 0.33333334, z: 0.33333334}
        outWeight: {x: 0.33333334, y: 0.33333334, z: 0.33333334}
      - serializedVersion: 3
        time: 2.8666666
        value: {x: -0, y: -0.066552624, z: 0}
        inSlope: {x: -0, y: -0.00000061414335, z: -0}
        outSlope: {x: -0, y: -0.00000030184688, z: -0}
        tangentMode: 0
        weightedMode: 0
        inWeight: {x: 0.33333334, y: 0.33333334, z: 0.33333334}
        outWeight: {x: 0.33333334, y: 0.33333334, z: 0.33333334}
      - serializedVersion: 3
        time: 3.1333334
        value: {x: -0, y: -0.017526256, z: 0}
        inSlope: {x: -0, y: 0.00000007880373, z: -0}
        outSlope: {x: -0, y: 0.00000007880373, z: -0}
        tangentMode: 0
        weightedMode: 0
        inWeight: {x: 0.33333334, y: 0.33333334, z: 0.33333334}
        outWeight: {x: 0.33333334, y: 0.33333334, z: 0.33333334}
      m_PreInfinity: 2
      m_PostInfinity: 2
      m_RotationOrder: 4
    path: Sphere005
  m_ScaleCurves:
  - curve:
      serializedVersion: 2
      m_Curve:
      - serializedVersion: 3
        time: 0
        value: {x: 1.048375, y: 1.048375, z: 1.048375}
        inSlope: {x: 0, y: 0, z: 0}
        outSlope: {x: 0, y: 0, z: 0}
        tangentMode: 0
        weightedMode: 0
        inWeight: {x: 0.33333334, y: 0.33333334, z: 0.33333334}
        outWeight: {x: 0.33333334, y: 0.33333334, z: 0.33333334}
      - serializedVersion: 3
        time: 3.3333335
        value: {x: 1.048375, y: 1.048375, z: 1.048375}
        inSlope: {x: 0, y: 0, z: 0}
        outSlope: {x: 0, y: 0, z: 0}
        tangentMode: 0
        weightedMode: 0
        inWeight: {x: 0.33333334, y: 0.33333334, z: 0.33333334}
        outWeight: {x: 0.33333334, y: 0.33333334, z: 0.33333334}
      m_PreInfinity: 2
      m_PostInfinity: 2
      m_RotationOrder: 4
    path: outerdecoration
  - curve:
      serializedVersion: 2
      m_Curve:
      - serializedVersion: 3
        time: 0
        value: {x: 1.048375, y: 1.048375, z: 1.048375}
        inSlope: {x: 0, y: 0, z: 0}
        outSlope: {x: 0, y: 0, z: 0}
        tangentMode: 0
        weightedMode: 0
        inWeight: {x: 0.33333334, y: 0.33333334, z: 0.33333334}
        outWeight: {x: 0.33333334, y: 0.33333334, z: 0.33333334}
      - serializedVersion: 3
        time: 3.3333335
        value: {x: 1.048375, y: 1.048375, z: 1.048375}
        inSlope: {x: 0, y: 0, z: 0}
        outSlope: {x: 0, y: 0, z: 0}
        tangentMode: 0
        weightedMode: 0
        inWeight: {x: 0.33333334, y: 0.33333334, z: 0.33333334}
        outWeight: {x: 0.33333334, y: 0.33333334, z: 0.33333334}
      m_PreInfinity: 2
      m_PostInfinity: 2
      m_RotationOrder: 4
    path: Object001
  - curve:
      serializedVersion: 2
      m_Curve:
      - serializedVersion: 3
        time: 0
        value: {x: 1.048375, y: 1.048375, z: 1.048375}
        inSlope: {x: 0, y: 0, z: 0}
        outSlope: {x: 0, y: 0, z: 0}
        tangentMode: 0
        weightedMode: 0
        inWeight: {x: 0.33333334, y: 0.33333334, z: 0.33333334}
        outWeight: {x: 0.33333334, y: 0.33333334, z: 0.33333334}
      - serializedVersion: 3
        time: 3.3333335
        value: {x: 1.048375, y: 1.048375, z: 1.048375}
        inSlope: {x: 0, y: 0, z: 0}
        outSlope: {x: 0, y: 0, z: 0}
        tangentMode: 0
        weightedMode: 0
        inWeight: {x: 0.33333334, y: 0.33333334, z: 0.33333334}
        outWeight: {x: 0.33333334, y: 0.33333334, z: 0.33333334}
      m_PreInfinity: 2
      m_PostInfinity: 2
      m_RotationOrder: 4
    path: Object002
  - curve:
      serializedVersion: 2
      m_Curve:
      - serializedVersion: 3
        time: 0
        value: {x: 1.048375, y: 1.048375, z: 1.048375}
        inSlope: {x: 0, y: 0, z: 0}
        outSlope: {x: 0, y: 0, z: 0}
        tangentMode: 0
        weightedMode: 0
        inWeight: {x: 0.33333334, y: 0.33333334, z: 0.33333334}
        outWeight: {x: 0.33333334, y: 0.33333334, z: 0.33333334}
      - serializedVersion: 3
        time: 3.3333335
        value: {x: 1.048375, y: 1.048375, z: 1.048375}
        inSlope: {x: 0, y: 0, z: 0}
        outSlope: {x: 0, y: 0, z: 0}
        tangentMode: 0
        weightedMode: 0
        inWeight: {x: 0.33333334, y: 0.33333334, z: 0.33333334}
        outWeight: {x: 0.33333334, y: 0.33333334, z: 0.33333334}
      m_PreInfinity: 2
      m_PostInfinity: 2
      m_RotationOrder: 4
    path: Object003
  - curve:
      serializedVersion: 2
      m_Curve:
      - serializedVersion: 3
        time: 0
        value: {x: 1.048375, y: 1.048375, z: 1.048375}
        inSlope: {x: 0, y: 0, z: 0}
        outSlope: {x: 0, y: 0, z: 0}
        tangentMode: 0
        weightedMode: 0
        inWeight: {x: 0.33333334, y: 0.33333334, z: 0.33333334}
        outWeight: {x: 0.33333334, y: 0.33333334, z: 0.33333334}
      - serializedVersion: 3
        time: 3.3333335
        value: {x: 1.048375, y: 1.048375, z: 1.048375}
        inSlope: {x: 0, y: 0, z: 0}
        outSlope: {x: 0, y: 0, z: 0}
        tangentMode: 0
        weightedMode: 0
        inWeight: {x: 0.33333334, y: 0.33333334, z: 0.33333334}
        outWeight: {x: 0.33333334, y: 0.33333334, z: 0.33333334}
      m_PreInfinity: 2
      m_PostInfinity: 2
      m_RotationOrder: 4
    path: Object004
  - curve:
      serializedVersion: 2
      m_Curve:
      - serializedVersion: 3
        time: 0
        value: {x: 1.048375, y: 1.048375, z: 1.048375}
        inSlope: {x: 0, y: 0, z: 0}
        outSlope: {x: 0, y: 0, z: 0}
        tangentMode: 0
        weightedMode: 0
        inWeight: {x: 0.33333334, y: 0.33333334, z: 0.33333334}
        outWeight: {x: 0.33333334, y: 0.33333334, z: 0.33333334}
      - serializedVersion: 3
        time: 3.3333335
        value: {x: 1.048375, y: 1.048375, z: 1.048375}
        inSlope: {x: 0, y: 0, z: 0}
        outSlope: {x: 0, y: 0, z: 0}
        tangentMode: 0
        weightedMode: 0
        inWeight: {x: 0.33333334, y: 0.33333334, z: 0.33333334}
        outWeight: {x: 0.33333334, y: 0.33333334, z: 0.33333334}
      m_PreInfinity: 2
      m_PostInfinity: 2
      m_RotationOrder: 4
    path: Object005
  - curve:
      serializedVersion: 2
      m_Curve:
      - serializedVersion: 3
        time: 0
        value: {x: 1.048375, y: 1.048375, z: 1.048375}
        inSlope: {x: 0, y: 0, z: 0}
        outSlope: {x: 0, y: 0, z: 0}
        tangentMode: 0
        weightedMode: 0
        inWeight: {x: 0.33333334, y: 0.33333334, z: 0.33333334}
        outWeight: {x: 0.33333334, y: 0.33333334, z: 0.33333334}
      - serializedVersion: 3
        time: 3.3333335
        value: {x: 1.048375, y: 1.048375, z: 1.048375}
        inSlope: {x: 0, y: 0, z: 0}
        outSlope: {x: 0, y: 0, z: 0}
        tangentMode: 0
        weightedMode: 0
        inWeight: {x: 0.33333334, y: 0.33333334, z: 0.33333334}
        outWeight: {x: 0.33333334, y: 0.33333334, z: 0.33333334}
      m_PreInfinity: 2
      m_PostInfinity: 2
      m_RotationOrder: 4
    path: Object006
  - curve:
      serializedVersion: 2
      m_Curve:
      - serializedVersion: 3
        time: 0
        value: {x: 1.048375, y: 1.048375, z: 1.048375}
        inSlope: {x: 0, y: 0, z: 0}
        outSlope: {x: 0, y: 0, z: 0}
        tangentMode: 0
        weightedMode: 0
        inWeight: {x: 0.33333334, y: 0.33333334, z: 0.33333334}
        outWeight: {x: 0.33333334, y: 0.33333334, z: 0.33333334}
      - serializedVersion: 3
        time: 3.3333335
        value: {x: 1.048375, y: 1.048375, z: 1.048375}
        inSlope: {x: 0, y: 0, z: 0}
        outSlope: {x: 0, y: 0, z: 0}
        tangentMode: 0
        weightedMode: 0
        inWeight: {x: 0.33333334, y: 0.33333334, z: 0.33333334}
        outWeight: {x: 0.33333334, y: 0.33333334, z: 0.33333334}
      m_PreInfinity: 2
      m_PostInfinity: 2
      m_RotationOrder: 4
    path: Object007
  - curve:
      serializedVersion: 2
      m_Curve:
      - serializedVersion: 3
        time: 0
        value: {x: 1.048375, y: 1.048375, z: 1.048375}
        inSlope: {x: 0, y: 0, z: 0}
        outSlope: {x: 0, y: 0, z: 0}
        tangentMode: 0
        weightedMode: 0
        inWeight: {x: 0.33333334, y: 0.33333334, z: 0.33333334}
        outWeight: {x: 0.33333334, y: 0.33333334, z: 0.33333334}
      - serializedVersion: 3
        time: 3.3333335
        value: {x: 1.048375, y: 1.048375, z: 1.048375}
        inSlope: {x: 0, y: 0, z: 0}
        outSlope: {x: 0, y: 0, z: 0}
        tangentMode: 0
        weightedMode: 0
        inWeight: {x: 0.33333334, y: 0.33333334, z: 0.33333334}
        outWeight: {x: 0.33333334, y: 0.33333334, z: 0.33333334}
      m_PreInfinity: 2
      m_PostInfinity: 2
      m_RotationOrder: 4
    path: Object008
  - curve:
      serializedVersion: 2
      m_Curve:
      - serializedVersion: 3
        time: 0
        value: {x: 1.048375, y: 1.048375, z: 1.048375}
        inSlope: {x: 0, y: 0, z: 0}
        outSlope: {x: 0, y: 0, z: 0}
        tangentMode: 0
        weightedMode: 0
        inWeight: {x: 0.33333334, y: 0.33333334, z: 0.33333334}
        outWeight: {x: 0.33333334, y: 0.33333334, z: 0.33333334}
      - serializedVersion: 3
        time: 3.3333335
        value: {x: 1.048375, y: 1.048375, z: 1.048375}
        inSlope: {x: 0, y: 0, z: 0}
        outSlope: {x: 0, y: 0, z: 0}
        tangentMode: 0
        weightedMode: 0
        inWeight: {x: 0.33333334, y: 0.33333334, z: 0.33333334}
        outWeight: {x: 0.33333334, y: 0.33333334, z: 0.33333334}
      m_PreInfinity: 2
      m_PostInfinity: 2
      m_RotationOrder: 4
    path: Object009
  - curve:
      serializedVersion: 2
      m_Curve:
      - serializedVersion: 3
        time: 0
        value: {x: 1.048375, y: 1.048375, z: 1.048375}
        inSlope: {x: 0, y: 0, z: 0}
        outSlope: {x: 0, y: 0, z: 0}
        tangentMode: 0
        weightedMode: 0
        inWeight: {x: 0.33333334, y: 0.33333334, z: 0.33333334}
        outWeight: {x: 0.33333334, y: 0.33333334, z: 0.33333334}
      - serializedVersion: 3
        time: 2.8666668
        value: {x: 1.048375, y: 1.048375, z: 1.048375}
        inSlope: {x: 0, y: 0, z: 0}
        outSlope: {x: 0, y: 0, z: 0}
        tangentMode: 0
        weightedMode: 0
        inWeight: {x: 0.33333334, y: 0.33333334, z: 0.33333334}
        outWeight: {x: 0.33333334, y: 0.33333334, z: 0.33333334}
      m_PreInfinity: 2
      m_PostInfinity: 2
      m_RotationOrder: 4
    path: Object010
  - curve:
      serializedVersion: 2
      m_Curve:
      - serializedVersion: 3
        time: 0
        value: {x: 0.46260202, y: 0.46260202, z: 0.46260202}
        inSlope: {x: 0, y: 0, z: 0}
        outSlope: {x: 0, y: 0, z: 0}
        tangentMode: 0
        weightedMode: 0
        inWeight: {x: 0.33333334, y: 0.33333334, z: 0.33333334}
        outWeight: {x: 0.33333334, y: 0.33333334, z: 0.33333334}
      - serializedVersion: 3
        time: 3.3333335
        value: {x: 0.46260202, y: 0.46260202, z: 0.46260202}
        inSlope: {x: 0, y: 0, z: 0}
        outSlope: {x: 0, y: 0, z: 0}
        tangentMode: 0
        weightedMode: 0
        inWeight: {x: 0.33333334, y: 0.33333334, z: 0.33333334}
        outWeight: {x: 0.33333334, y: 0.33333334, z: 0.33333334}
      m_PreInfinity: 2
      m_PostInfinity: 2
      m_RotationOrder: 4
    path: Sphere002
  - curve:
      serializedVersion: 2
      m_Curve:
      - serializedVersion: 3
        time: 0
        value: {x: 0.859148, y: 0.859148, z: 0.859148}
        inSlope: {x: 0, y: 0, z: 0}
        outSlope: {x: 0, y: 0, z: 0}
        tangentMode: 0
        weightedMode: 0
        inWeight: {x: 0.33333334, y: 0.33333334, z: 0.33333334}
        outWeight: {x: 0.33333334, y: 0.33333334, z: 0.33333334}
      - serializedVersion: 3
        time: 3.3333335
        value: {x: 0.859148, y: 0.859148, z: 0.859148}
        inSlope: {x: 0, y: 0, z: 0}
        outSlope: {x: 0, y: 0, z: 0}
        tangentMode: 0
        weightedMode: 0
        inWeight: {x: 0.33333334, y: 0.33333334, z: 0.33333334}
        outWeight: {x: 0.33333334, y: 0.33333334, z: 0.33333334}
      m_PreInfinity: 2
      m_PostInfinity: 2
      m_RotationOrder: 4
    path: Sphere004
  - curve:
      serializedVersion: 2
      m_Curve:
      - serializedVersion: 3
        time: 0
        value: {x: 1.211698, y: 1.211698, z: 1.211698}
        inSlope: {x: 0, y: 0, z: 0}
        outSlope: {x: 0, y: 0, z: 0}
        tangentMode: 0
        weightedMode: 0
        inWeight: {x: 0.33333334, y: 0.33333334, z: 0.33333334}
        outWeight: {x: 0.33333334, y: 0.33333334, z: 0.33333334}
      - serializedVersion: 3
        time: 3.3333335
        value: {x: 1.211698, y: 1.211698, z: 1.211698}
        inSlope: {x: 0, y: 0, z: 0}
        outSlope: {x: 0, y: 0, z: 0}
        tangentMode: 0
        weightedMode: 0
        inWeight: {x: 0.33333334, y: 0.33333334, z: 0.33333334}
        outWeight: {x: 0.33333334, y: 0.33333334, z: 0.33333334}
      m_PreInfinity: 2
      m_PostInfinity: 2
      m_RotationOrder: 4
    path: Sphere005
  - curve:
      serializedVersion: 2
      m_Curve:
      - serializedVersion: 3
        time: 0
        value: {x: 1.048375, y: 1.048375, z: 1.048375}
        inSlope: {x: 0, y: 0, z: 0}
        outSlope: {x: 0, y: 0, z: 0}
        tangentMode: 0
        weightedMode: 0
        inWeight: {x: 0.33333334, y: 0.33333334, z: 0.33333334}
        outWeight: {x: 0.33333334, y: 0.33333334, z: 0.33333334}
      - serializedVersion: 3
        time: 0.40000004
        value: {x: 1.048375, y: 1.048375, z: 1.048375}
        inSlope: {x: 0, y: 0, z: 0}
        outSlope: {x: 0, y: 0, z: 0}
        tangentMode: 0
        weightedMode: 0
        inWeight: {x: 0.33333334, y: 0.33333334, z: 0.33333334}
        outWeight: {x: 0.33333334, y: 0.33333334, z: 0.33333334}
      m_PreInfinity: 2
      m_PostInfinity: 2
      m_RotationOrder: 4
    path: Object012
  - curve:
      serializedVersion: 2
      m_Curve:
      - serializedVersion: 3
        time: 0
        value: {x: 0.737188, y: 0.737188, z: 0.737188}
        inSlope: {x: 0, y: 0, z: 0}
        outSlope: {x: 0, y: 0, z: 0}
        tangentMode: 0
        weightedMode: 0
        inWeight: {x: 0.33333334, y: 0.33333334, z: 0.33333334}
        outWeight: {x: 0.33333334, y: 0.33333334, z: 0.33333334}
      - serializedVersion: 3
        time: 3.3333335
        value: {x: 0.737188, y: 0.737188, z: 0.737188}
        inSlope: {x: 0, y: 0, z: 0}
        outSlope: {x: 0, y: 0, z: 0}
        tangentMode: 0
        weightedMode: 0
        inWeight: {x: 0.33333334, y: 0.33333334, z: 0.33333334}
        outWeight: {x: 0.33333334, y: 0.33333334, z: 0.33333334}
      m_PreInfinity: 2
      m_PostInfinity: 2
      m_RotationOrder: 4
    path: Object015
  m_FloatCurves: []
  m_PPtrCurves: []
  m_SampleRate: 30
  m_WrapMode: 0
  m_Bounds:
    m_Center: {x: 0, y: 0, z: 0}
    m_Extent: {x: 0, y: 0, z: 0}
  m_ClipBindingConstant:
    genericBindings: []
    pptrCurveMapping: []
  m_AnimationClipSettings:
    serializedVersion: 2
    m_AdditiveReferencePoseClip: {fileID: 0}
    m_AdditiveReferencePoseTime: 0
    m_StartTime: 0
    m_StopTime: 3.3333335
    m_OrientationOffsetY: 0
    m_Level: 0
    m_CycleOffset: 0
    m_HasAdditiveReferencePose: 0
    m_LoopTime: 0
    m_LoopBlend: 0
    m_LoopBlendOrientation: 0
    m_LoopBlendPositionY: 0
    m_LoopBlendPositionXZ: 0
    m_KeepOriginalOrientation: 0
    m_KeepOriginalPositionY: 1
    m_KeepOriginalPositionXZ: 0
    m_HeightFromFeet: 0
    m_Mirror: 0
  m_EditorCurves: []
  m_EulerEditorCurves: []
  m_HasGenericRootTransform: 0
  m_HasMotionFloatCurves: 0
  m_Events: []
